<svg width="61" height="59" viewBox="0 0 61 59" fill="none" xmlns="http://www.w3.org/2000/svg">
<g clip-path="url(#clip0)">
<path d="M60.4071 17.3462C60.2672 14.2113 59.7538 12.0561 59.0184 10.1885C58.2597 8.2062 57.0926 6.43142 55.5634 4.95605C54.0693 3.45771 52.2602 2.29343 50.276 1.55597C48.3739 0.82976 46.2028 0.322809 43.0282 0.184591C39.8298 0.0346671 38.8145 0 30.7027 0C22.5908 0 21.5755 0.0346671 18.389 0.172885C15.2144 0.311104 13.0319 0.818504 11.1412 1.54426C9.13328 2.29343 7.33602 3.446 5.84195 4.95605C4.32463 6.43142 3.14606 8.21791 2.3988 10.1773C1.66339 12.0561 1.15002 14.1996 1.01005 17.3345C0.858226 20.4928 0.82312 21.4954 0.82312 29.5058C0.82312 37.5161 0.858226 38.5188 0.998196 41.6654C1.13816 44.8003 1.65199 46.9555 2.3874 48.823C3.14606 50.8053 4.32463 52.5801 5.84195 54.0555C7.33602 55.5538 9.14513 56.7181 11.1293 57.4556C13.0319 58.1818 15.2026 58.6887 18.3776 58.8269C21.5636 58.9656 22.5794 58.9998 30.6913 58.9998C38.8031 58.9998 39.8184 58.9656 43.0049 58.8269C46.1795 58.6887 48.362 58.1818 50.2528 57.4556C54.2681 55.9226 57.4427 52.7877 58.9951 48.823C59.7301 46.9442 60.2439 44.8003 60.3839 41.6654C60.5238 38.5188 60.559 37.5161 60.559 29.5058C60.559 21.4954 60.5471 20.4928 60.4071 17.3462ZM55.0268 41.4349C54.8982 44.3163 54.4081 45.8722 53.9996 46.9096C52.9956 49.4799 50.9298 51.5198 48.3269 52.5112C47.2765 52.9146 45.6894 53.3986 42.7829 53.5251C39.6315 53.6638 38.6864 53.698 30.7145 53.698C22.7427 53.698 21.7857 53.6638 18.6457 53.5251C15.7278 53.3986 14.1521 52.9146 13.1017 52.5112C11.8064 52.0385 10.6273 51.2893 9.67036 50.3096C8.67826 49.3529 7.9196 48.2003 7.44088 46.9213C7.03237 45.8839 6.54225 44.3163 6.41414 41.4466C6.27371 38.3346 6.23906 37.4009 6.23906 29.5287C6.23906 21.6566 6.27371 20.7116 6.41414 17.6113C6.54225 14.7299 7.03237 13.174 7.44088 12.1366C7.9196 10.8571 8.67826 9.69328 9.68221 8.74782C10.6506 7.76813 11.8178 7.01896 13.1135 6.54668C14.164 6.14328 15.7515 5.65929 18.6576 5.53233C21.8089 5.39411 22.7545 5.35945 30.7259 5.35945C38.7096 5.35945 39.6548 5.39411 42.7947 5.53233C45.7126 5.65929 47.2883 6.14328 48.3388 6.54668C49.6341 7.01896 50.8131 7.76813 51.7701 8.74782C52.7622 9.70454 53.5208 10.8571 53.9996 12.1366C54.4081 13.174 54.8982 14.7412 55.0268 17.6113C55.1667 20.7233 55.2018 21.6566 55.2018 29.5287C55.2018 37.4009 55.1667 38.3229 55.0268 41.4349Z" fill="#ECECEC"/>
<path d="M30.7027 14.3495C22.2293 14.3495 15.3544 21.1379 15.3544 29.5058C15.3544 37.8736 22.2293 44.6621 30.7027 44.6621C39.1765 44.6621 46.0509 37.8736 46.0509 29.5058C46.0509 21.1379 39.1765 14.3495 30.7027 14.3495ZM30.7027 39.3373C25.2056 39.3373 20.7466 34.9345 20.7466 29.5058C20.7466 24.077 25.2056 19.6743 30.7027 19.6743C36.2002 19.6743 40.6587 24.077 40.6587 29.5058C40.6587 34.9345 36.2002 39.3373 30.7027 39.3373Z" fill="#ECECEC"/>
<path d="M50.2413 13.7502C50.2413 15.7042 48.6369 17.2885 46.6578 17.2885C44.679 17.2885 43.0746 15.7042 43.0746 13.7502C43.0746 11.7958 44.679 10.2119 46.6578 10.2119C48.6369 10.2119 50.2413 11.7958 50.2413 13.7502Z" fill="#ECECEC"/>
</g>
<defs>
<clipPath id="clip0">
<rect width="59.7474" height="59" fill="white" transform="translate(0.71814)"/>
</clipPath>
</defs>
</svg>
