<svg width="183" height="262" viewBox="0 0 183 262" fill="none" xmlns="http://www.w3.org/2000/svg">
<g clip-path="url(#clip0)">
<path d="M87.9317 105.311L81.9215 128.232C81.6662 129.209 81.9656 130.241 82.711 130.953C83.4578 131.665 84.5407 131.952 85.5649 131.709L97.5852 128.843C98.6476 128.614 99.4986 127.856 99.8068 126.858C100.116 125.861 99.8332 124.784 99.0702 124.041C98.3072 123.299 97.1817 123.01 96.1296 123.284L88.9662 124.989L93.7746 106.705C94.1634 105.174 93.1862 103.631 91.5839 103.249C89.983 102.866 88.3572 103.788 87.9449 105.311H87.9317Z" fill="#FF8A00"/>
<path d="M76.5585 97.5052C74.9503 97.1163 73.3157 98.0424 72.9064 99.5757C72.8829 99.6708 70.34 108.873 63.8016 108.873C57.2632 108.873 54.7203 99.6708 54.6968 99.5757C54.2918 98.041 52.6572 97.1093 51.0476 97.4954C49.4379 97.8815 48.4607 99.44 48.8657 100.975C49.0109 101.53 52.5692 114.603 63.8016 114.603C75.034 114.603 78.5922 101.53 78.7375 100.975C79.1366 99.4428 78.1623 97.8913 76.5585 97.5052Z" fill="#FF8A00"/>
<path d="M117.893 114.603C129.126 114.603 132.684 101.53 132.829 100.975C133.234 99.44 132.257 97.8815 130.647 97.4954C129.037 97.1093 127.403 98.041 126.998 99.5757C126.974 99.6708 124.432 108.873 117.893 108.873C111.355 108.873 108.812 99.6708 108.788 99.5757C108.383 98.041 106.749 97.1093 105.139 97.4954C103.529 97.8815 102.552 99.44 102.957 100.975C103.102 101.53 106.661 114.603 117.893 114.603Z" fill="#FF8A00"/>
<path d="M153.954 83.4344V65.8969C153.954 60.0688 143.829 55.8887 123.903 53.4419V2.86508C123.903 1.28285 122.558 0 120.898 0H72.8168C64.522 0.00979279 57.8016 6.41706 57.7914 14.3254V53.4419C37.8651 55.8887 27.7405 60.0688 27.7405 65.8969V83.4344C20.8925 85.0334 15.7202 91.9695 15.7202 100.278C15.7202 108.696 21.0393 115.703 28.0413 117.182C30.976 148.173 58.2228 171.911 90.859 171.911C123.497 171.911 150.743 148.173 153.678 117.182C160.655 115.703 165.974 108.696 165.974 100.278C165.974 91.9695 160.802 85.0334 153.954 83.4344ZM27.7405 111.033C23.7832 108.803 21.4633 104.653 21.7304 100.278C21.4633 95.9034 23.7832 91.7526 27.7405 89.5227V111.033ZM72.8168 5.73017H117.893V11.4603H84.8371C83.1776 11.4603 81.832 12.7432 81.832 14.3254C81.832 15.9077 83.1776 17.1905 84.8371 17.1905H117.893V22.9207H72.8168C67.8381 22.9207 63.8015 19.0721 63.8015 14.3254C63.8015 9.57873 67.8381 5.73017 72.8168 5.73017ZM87.8422 28.6508V43.3512L83.5004 40.5924C82.4894 39.9503 81.1747 39.9503 80.1637 40.5924L75.8219 43.3512V28.6508H87.8422ZM63.8015 25.7116C65.5711 27.0141 67.6254 27.9192 69.8117 28.3613V48.7064C69.8117 49.7626 70.4221 50.7349 71.3993 51.233C72.3766 51.731 73.5622 51.6764 74.4851 51.0903L81.832 46.4149L89.1789 51.0847C90.1004 51.6708 91.286 51.7254 92.2618 51.2288C93.239 50.7321 93.8509 49.7626 93.8523 48.7064V28.6508H117.893V63.0319H63.8015V25.7116ZM147.944 111.738C147.944 141.803 122.382 166.175 90.8473 166.175C59.3144 166.175 33.7507 141.803 33.7507 111.738V72.6637C49.1033 80.1104 88.771 80.2224 90.8473 80.2224C92.9235 80.2224 132.591 80.1104 147.944 72.6637V111.738ZM90.8473 74.4922C55.3879 74.4922 35.1755 68.9257 33.7507 66.0606V66.0033C34.2863 64.8939 39.7946 61.5112 57.7914 59.2155V65.8969C57.7914 67.4792 59.1369 68.762 60.7964 68.762H120.898C122.558 68.762 123.903 67.4792 123.903 65.8969V59.2155C142.057 61.5308 147.511 64.9456 147.964 65.7598C146.636 68.8935 126.418 74.4922 90.8473 74.4922ZM153.954 111.033V89.5227C157.911 91.7526 160.231 95.9034 159.964 100.278C160.231 104.653 157.911 108.803 153.954 111.033Z" fill="#FF8A00"/>
</g>
<path d="M14.6974 229H13.0099V216.203H14.6974V229ZM17.6505 219.807L16.7277 219.174C17.2726 218.412 17.5538 217.609 17.5714 216.766V215.5H19.1798V216.643C19.174 217.229 19.0275 217.814 18.7404 218.4C18.4591 218.98 18.0958 219.449 17.6505 219.807ZM22.4933 219.49L22.5372 220.545C23.2345 219.725 24.1749 219.314 25.3585 219.314C26.6886 219.314 27.5939 219.824 28.0744 220.844C28.3908 220.387 28.8009 220.018 29.3048 219.736C29.8146 219.455 30.4152 219.314 31.1066 219.314C33.1925 219.314 34.2531 220.419 34.2882 222.628V229H32.6622V222.725C32.6622 222.045 32.507 221.538 32.1964 221.204C31.8859 220.864 31.3644 220.694 30.632 220.694C30.0285 220.694 29.5275 220.876 29.129 221.239C28.7306 221.597 28.4992 222.08 28.4347 222.689V229H26.7999V222.769C26.7999 221.386 26.1232 220.694 24.7697 220.694C23.7033 220.694 22.9738 221.148 22.5812 222.057V229H20.9552V219.49H22.4933ZM47.0851 229C46.9913 228.812 46.9152 228.479 46.8566 227.998C46.1007 228.783 45.1984 229.176 44.1496 229.176C43.2121 229.176 42.4415 228.912 41.838 228.385C41.2404 227.852 40.9415 227.178 40.9415 226.363C40.9415 225.373 41.3165 224.605 42.0665 224.061C42.8224 223.51 43.8829 223.234 45.2482 223.234H46.8302V222.487C46.8302 221.919 46.6603 221.468 46.3204 221.134C45.9806 220.794 45.4796 220.624 44.8175 220.624C44.2374 220.624 43.7511 220.771 43.3585 221.063C42.966 221.356 42.7697 221.711 42.7697 222.127H41.1349C41.1349 221.652 41.3019 221.195 41.6359 220.756C41.9757 220.311 42.4328 219.959 43.007 219.701C43.5871 219.443 44.2228 219.314 44.9142 219.314C46.0099 219.314 46.8683 219.59 47.4894 220.141C48.1105 220.686 48.4328 221.438 48.4562 222.399V226.776C48.4562 227.649 48.5675 228.344 48.7902 228.859V229H47.0851ZM44.3869 227.761C44.8966 227.761 45.38 227.629 45.8371 227.365C46.2941 227.102 46.6251 226.759 46.8302 226.337V224.386H45.5558C43.5636 224.386 42.5675 224.969 42.5675 226.135C42.5675 226.645 42.7374 227.043 43.0773 227.33C43.4171 227.617 43.8537 227.761 44.3869 227.761ZM56.2697 229V220.747H54.7667V219.49H56.2697V218.515C56.2697 217.495 56.5421 216.707 57.0871 216.15C57.632 215.594 58.4025 215.315 59.3986 215.315C59.7736 215.315 60.1456 215.365 60.5148 215.465L60.4269 216.783C60.1515 216.73 59.8585 216.704 59.548 216.704C59.0206 216.704 58.6134 216.859 58.3263 217.17C58.0392 217.475 57.8956 217.914 57.8956 218.488V219.49H59.9259V220.747H57.8956V229H56.2697ZM67.5988 229C67.505 228.812 67.4288 228.479 67.3703 227.998C66.6144 228.783 65.7121 229.176 64.6632 229.176C63.7257 229.176 62.9552 228.912 62.3517 228.385C61.754 227.852 61.4552 227.178 61.4552 226.363C61.4552 225.373 61.8302 224.605 62.5802 224.061C63.3361 223.51 64.3966 223.234 65.7619 223.234H67.3439V222.487C67.3439 221.919 67.174 221.468 66.8341 221.134C66.4943 220.794 65.9933 220.624 65.3312 220.624C64.7511 220.624 64.2648 220.771 63.8722 221.063C63.4796 221.356 63.2833 221.711 63.2833 222.127H61.6486C61.6486 221.652 61.8156 221.195 62.1496 220.756C62.4894 220.311 62.9464 219.959 63.5206 219.701C64.1007 219.443 64.7365 219.314 65.4279 219.314C66.5236 219.314 67.382 219.59 68.0031 220.141C68.6242 220.686 68.9464 221.438 68.9699 222.399V226.776C68.9699 227.649 69.0812 228.344 69.3038 228.859V229H67.5988ZM64.9005 227.761C65.4103 227.761 65.8937 227.629 66.3507 227.365C66.8078 227.102 67.1388 226.759 67.3439 226.337V224.386H66.0695C64.0773 224.386 63.0812 224.969 63.0812 226.135C63.0812 226.645 63.2511 227.043 63.591 227.33C63.9308 227.617 64.3673 227.761 64.9005 227.761ZM77.0558 226.478C77.0558 226.038 76.8888 225.698 76.5548 225.458C76.2267 225.212 75.6496 225.001 74.8234 224.825C74.0031 224.649 73.3497 224.438 72.8634 224.192C72.3829 223.946 72.0255 223.653 71.7912 223.313C71.5626 222.974 71.4484 222.569 71.4484 222.101C71.4484 221.321 71.7765 220.662 72.4328 220.123C73.0949 219.584 73.9386 219.314 74.964 219.314C76.0421 219.314 76.9152 219.593 77.5831 220.149C78.257 220.706 78.5939 221.418 78.5939 222.285H76.9591C76.9591 221.84 76.7687 221.456 76.3878 221.134C76.0128 220.812 75.5382 220.65 74.964 220.65C74.3722 220.65 73.9093 220.779 73.5753 221.037C73.2413 221.295 73.0744 221.632 73.0744 222.048C73.0744 222.44 73.2296 222.736 73.5402 222.936C73.8507 223.135 74.4103 223.325 75.2189 223.507C76.0333 223.688 76.6925 223.905 77.1964 224.157C77.7003 224.409 78.0724 224.714 78.3126 225.071C78.5587 225.423 78.6818 225.854 78.6818 226.363C78.6818 227.213 78.3419 227.896 77.6622 228.411C76.9826 228.921 76.1007 229.176 75.0167 229.176C74.255 229.176 73.5812 229.041 72.9953 228.771C72.4093 228.502 71.9494 228.127 71.6154 227.646C71.2872 227.16 71.1232 226.636 71.1232 226.073H72.7492C72.7785 226.618 72.9953 227.052 73.3996 227.374C73.8097 227.69 74.3488 227.849 75.0167 227.849C75.632 227.849 76.1242 227.726 76.4933 227.479C76.8683 227.228 77.0558 226.894 77.0558 226.478ZM83.006 217.188V219.49H84.7814V220.747H83.006V226.645C83.006 227.025 83.0851 227.312 83.2433 227.506C83.4015 227.693 83.671 227.787 84.0519 227.787C84.2394 227.787 84.4972 227.752 84.8253 227.682V229C84.3976 229.117 83.9816 229.176 83.5773 229.176C82.8507 229.176 82.3029 228.956 81.9337 228.517C81.5646 228.077 81.38 227.453 81.38 226.645V220.747H79.6486V219.49H81.38V217.188H83.006ZM92.9201 229H91.2941V215.5H92.9201V229ZM99.4767 229.176C98.1876 229.176 97.1388 228.754 96.3302 227.91C95.5216 227.061 95.1173 225.927 95.1173 224.509V224.21C95.1173 223.267 95.296 222.426 95.6535 221.688C96.0167 220.943 96.5206 220.363 97.1652 219.947C97.8156 219.525 98.5187 219.314 99.2746 219.314C100.511 219.314 101.472 219.722 102.157 220.536C102.843 221.351 103.186 222.517 103.186 224.034V224.711H96.7433C96.7667 225.648 97.0392 226.407 97.5607 226.987C98.088 227.562 98.756 227.849 99.5646 227.849C100.139 227.849 100.625 227.731 101.024 227.497C101.422 227.263 101.771 226.952 102.069 226.565L103.063 227.339C102.266 228.563 101.07 229.176 99.4767 229.176ZM99.2746 220.65C98.6183 220.65 98.0675 220.891 97.6222 221.371C97.1769 221.846 96.9015 222.514 96.796 223.375H101.56V223.252C101.513 222.426 101.29 221.787 100.892 221.336C100.493 220.879 99.9542 220.65 99.2746 220.65ZM110.946 229C110.853 228.812 110.777 228.479 110.718 227.998C109.962 228.783 109.06 229.176 108.011 229.176C107.073 229.176 106.303 228.912 105.699 228.385C105.102 227.852 104.803 227.178 104.803 226.363C104.803 225.373 105.178 224.605 105.928 224.061C106.684 223.51 107.744 223.234 109.11 223.234H110.692V222.487C110.692 221.919 110.522 221.468 110.182 221.134C109.842 220.794 109.341 220.624 108.679 220.624C108.099 220.624 107.612 220.771 107.22 221.063C106.827 221.356 106.631 221.711 106.631 222.127H104.996C104.996 221.652 105.163 221.195 105.497 220.756C105.837 220.311 106.294 219.959 106.868 219.701C107.448 219.443 108.084 219.314 108.776 219.314C109.871 219.314 110.73 219.59 111.351 220.141C111.972 220.686 112.294 221.438 112.318 222.399V226.776C112.318 227.649 112.429 228.344 112.652 228.859V229H110.946ZM108.248 227.761C108.758 227.761 109.241 227.629 109.698 227.365C110.155 227.102 110.486 226.759 110.692 226.337V224.386H109.417C107.425 224.386 106.429 224.969 106.429 226.135C106.429 226.645 106.599 227.043 106.939 227.33C107.278 227.617 107.715 227.761 108.248 227.761ZM119.463 220.949C119.217 220.908 118.95 220.888 118.663 220.888C117.597 220.888 116.873 221.342 116.492 222.25V229H114.866V219.49H116.448L116.475 220.589C117.008 219.739 117.764 219.314 118.742 219.314C119.059 219.314 119.299 219.355 119.463 219.438V220.949ZM122.504 219.49L122.557 220.686C123.283 219.771 124.233 219.314 125.404 219.314C127.414 219.314 128.428 220.448 128.445 222.716V229H126.819V222.707C126.814 222.021 126.655 221.515 126.345 221.187C126.04 220.858 125.563 220.694 124.912 220.694C124.385 220.694 123.922 220.835 123.524 221.116C123.125 221.397 122.815 221.767 122.592 222.224V229H120.966V219.49H122.504ZM134.844 229.176C133.555 229.176 132.506 228.754 131.697 227.91C130.889 227.061 130.485 225.927 130.485 224.509V224.21C130.485 223.267 130.663 222.426 131.021 221.688C131.384 220.943 131.888 220.363 132.532 219.947C133.183 219.525 133.886 219.314 134.642 219.314C135.878 219.314 136.839 219.722 137.525 220.536C138.21 221.351 138.553 222.517 138.553 224.034V224.711H132.11C132.134 225.648 132.406 226.407 132.928 226.987C133.455 227.562 134.123 227.849 134.932 227.849C135.506 227.849 135.992 227.731 136.391 227.497C136.789 227.263 137.138 226.952 137.437 226.565L138.43 227.339C137.633 228.563 136.438 229.176 134.844 229.176ZM134.642 220.65C133.985 220.65 133.435 220.891 132.989 221.371C132.544 221.846 132.269 222.514 132.163 223.375H136.927V223.252C136.88 222.426 136.657 221.787 136.259 221.336C135.86 220.879 135.321 220.65 134.642 220.65ZM145.039 220.949C144.793 220.908 144.527 220.888 144.239 220.888C143.173 220.888 142.449 221.342 142.068 222.25V229H140.443V219.49H142.025L142.051 220.589C142.584 219.739 143.34 219.314 144.318 219.314C144.635 219.314 144.875 219.355 145.039 219.438V220.949ZM145.4 231.549L144.477 230.916C145.027 230.148 145.315 229.357 145.338 228.543V227.075H146.929V228.35C146.929 228.941 146.782 229.533 146.489 230.125C146.202 230.717 145.839 231.191 145.4 231.549ZM155.217 229H153.591V219.49H155.217V229ZM153.459 216.968C153.459 216.704 153.538 216.481 153.696 216.3C153.86 216.118 154.101 216.027 154.417 216.027C154.734 216.027 154.974 216.118 155.138 216.3C155.302 216.481 155.384 216.704 155.384 216.968C155.384 217.231 155.302 217.451 155.138 217.627C154.974 217.803 154.734 217.891 154.417 217.891C154.101 217.891 153.86 217.803 153.696 217.627C153.538 217.451 153.459 217.231 153.459 216.968ZM160.033 217.188V219.49H161.809V220.747H160.033V226.645C160.033 227.025 160.112 227.312 160.271 227.506C160.429 227.693 160.698 227.787 161.079 227.787C161.267 227.787 161.525 227.752 161.853 227.682V229C161.425 229.117 161.009 229.176 160.605 229.176C159.878 229.176 159.33 228.956 158.961 228.517C158.592 228.077 158.407 227.453 158.407 226.645V220.747H156.676V219.49H158.407V217.188H160.033ZM163.83 219.807L162.907 219.174C163.452 218.412 163.734 217.609 163.751 216.766V215.5H165.36V216.643C165.354 217.229 165.207 217.814 164.92 218.4C164.639 218.98 164.276 219.449 163.83 219.807ZM171.872 226.478C171.872 226.038 171.705 225.698 171.371 225.458C171.043 225.212 170.466 225.001 169.64 224.825C168.819 224.649 168.166 224.438 167.68 224.192C167.199 223.946 166.842 223.653 166.608 223.313C166.379 222.974 166.265 222.569 166.265 222.101C166.265 221.321 166.593 220.662 167.249 220.123C167.911 219.584 168.755 219.314 169.78 219.314C170.859 219.314 171.732 219.593 172.4 220.149C173.073 220.706 173.41 221.418 173.41 222.285H171.776C171.776 221.84 171.585 221.456 171.204 221.134C170.829 220.812 170.355 220.65 169.78 220.65C169.189 220.65 168.726 220.779 168.392 221.037C168.058 221.295 167.891 221.632 167.891 222.048C167.891 222.44 168.046 222.736 168.357 222.936C168.667 223.135 169.227 223.325 170.035 223.507C170.85 223.688 171.509 223.905 172.013 224.157C172.517 224.409 172.889 224.714 173.129 225.071C173.375 225.423 173.498 225.854 173.498 226.363C173.498 227.213 173.158 227.896 172.479 228.411C171.799 228.921 170.917 229.176 169.833 229.176C169.071 229.176 168.398 229.041 167.812 228.771C167.226 228.502 166.766 228.127 166.432 227.646C166.104 227.16 165.94 226.636 165.94 226.073H167.566C167.595 226.618 167.812 227.052 168.216 227.374C168.626 227.69 169.165 227.849 169.833 227.849C170.448 227.849 170.941 227.726 171.31 227.479C171.685 227.228 171.872 226.894 171.872 226.478ZM13.4054 245.351C13.4054 246.798 13.0744 247.964 12.4122 248.849C11.7501 249.733 10.8537 250.176 9.72279 250.176C8.5685 250.176 7.66029 249.81 6.99818 249.077V253.656H5.37221V240.49H6.85756L6.93666 241.545C7.59877 240.725 8.51869 240.314 9.69643 240.314C10.839 240.314 11.7413 240.745 12.4035 241.606C13.0714 242.468 13.4054 243.666 13.4054 245.201V245.351ZM11.7794 245.166C11.7794 244.094 11.5509 243.247 11.0939 242.626C10.6369 242.005 10.0099 241.694 9.21303 241.694C8.22865 241.694 7.49037 242.131 6.99818 243.004V247.548C7.48451 248.415 8.22865 248.849 9.23061 248.849C10.0099 248.849 10.6281 248.541 11.0851 247.926C11.548 247.305 11.7794 246.385 11.7794 245.166ZM20.0763 241.949C19.8302 241.908 19.5636 241.888 19.2765 241.888C18.2101 241.888 17.4865 242.342 17.1056 243.25V250H15.4796V240.49H17.0617L17.088 241.589C17.6212 240.739 18.3771 240.314 19.3556 240.314C19.672 240.314 19.9122 240.355 20.0763 240.438V241.949ZM25.3497 250.176C24.0607 250.176 23.0119 249.754 22.2033 248.91C21.3947 248.061 20.9904 246.927 20.9904 245.509V245.21C20.9904 244.267 21.1691 243.426 21.5265 242.688C21.8898 241.943 22.3937 241.363 23.0382 240.947C23.6886 240.525 24.3917 240.314 25.1476 240.314C26.3839 240.314 27.3449 240.722 28.0304 241.536C28.716 242.351 29.0587 243.517 29.0587 245.034V245.711H22.6163C22.6398 246.648 22.9122 247.407 23.4337 247.987C23.9611 248.562 24.629 248.849 25.4376 248.849C26.0119 248.849 26.4982 248.731 26.8966 248.497C27.2951 248.263 27.6437 247.952 27.9425 247.565L28.9357 248.339C28.1388 249.563 26.9435 250.176 25.3497 250.176ZM25.1476 241.65C24.4913 241.65 23.9406 241.891 23.4953 242.371C23.0499 242.846 22.7746 243.514 22.6691 244.375H27.4328V244.252C27.3859 243.426 27.1632 242.787 26.7648 242.336C26.3663 241.879 25.8273 241.65 25.1476 241.65ZM33.1544 238.188V240.49H34.9298V241.747H33.1544V247.645C33.1544 248.025 33.2335 248.312 33.3917 248.506C33.5499 248.693 33.8195 248.787 34.2003 248.787C34.3878 248.787 34.6456 248.752 34.9738 248.682V250C34.546 250.117 34.13 250.176 33.7257 250.176C32.9992 250.176 32.4513 249.956 32.0822 249.517C31.713 249.077 31.5285 248.453 31.5285 247.645V241.747H29.797V240.49H31.5285V238.188H33.1544ZM39.0431 238.188V240.49H40.8185V241.747H39.0431V247.645C39.0431 248.025 39.1222 248.312 39.2804 248.506C39.4386 248.693 39.7081 248.787 40.089 248.787C40.2765 248.787 40.5343 248.752 40.8624 248.682V250C40.4347 250.117 40.0187 250.176 39.6144 250.176C38.8878 250.176 38.34 249.956 37.9708 249.517C37.6017 249.077 37.4171 248.453 37.4171 247.645V241.747H35.6857V240.49H37.4171V238.188H39.0431ZM45.8371 247.618L48.0519 240.49H49.7921L45.9689 251.468C45.3771 253.05 44.4367 253.841 43.1476 253.841L42.84 253.814L42.2335 253.7V252.382L42.673 252.417C43.2238 252.417 43.6515 252.306 43.9562 252.083C44.2667 251.86 44.5216 251.453 44.7208 250.861L45.0812 249.895L41.6886 240.49H43.464L45.8371 247.618ZM61.2531 247.478C61.2531 247.038 61.0861 246.698 60.7521 246.458C60.424 246.212 59.8468 246.001 59.0206 245.825C58.2003 245.649 57.547 245.438 57.0607 245.192C56.5802 244.946 56.2228 244.653 55.9884 244.313C55.7599 243.974 55.6456 243.569 55.6456 243.101C55.6456 242.321 55.9738 241.662 56.63 241.123C57.2921 240.584 58.1359 240.314 59.1613 240.314C60.2394 240.314 61.1124 240.593 61.7804 241.149C62.4542 241.706 62.7912 242.418 62.7912 243.285H61.1564C61.1564 242.84 60.966 242.456 60.5851 242.134C60.2101 241.812 59.7355 241.65 59.1613 241.65C58.5695 241.65 58.1066 241.779 57.7726 242.037C57.4386 242.295 57.2716 242.632 57.2716 243.048C57.2716 243.44 57.4269 243.736 57.7374 243.936C58.048 244.135 58.6076 244.325 59.4162 244.507C60.2306 244.688 60.8898 244.905 61.3937 245.157C61.8976 245.409 62.2697 245.714 62.5099 246.071C62.756 246.423 62.879 246.854 62.879 247.363C62.879 248.213 62.5392 248.896 61.8595 249.411C61.1798 249.921 60.298 250.176 59.214 250.176C58.4523 250.176 57.7785 250.041 57.1925 249.771C56.6066 249.502 56.1466 249.127 55.8126 248.646C55.4845 248.16 55.3204 247.636 55.3204 247.073H56.9464C56.9757 247.618 57.1925 248.052 57.5968 248.374C58.007 248.69 58.546 248.849 59.214 248.849C59.8292 248.849 60.3214 248.726 60.6906 248.479C61.0656 248.228 61.2531 247.894 61.2531 247.478ZM68.9435 250.176C67.6544 250.176 66.6056 249.754 65.797 248.91C64.9884 248.061 64.5841 246.927 64.5841 245.509V245.21C64.5841 244.267 64.7628 243.426 65.1203 242.688C65.4835 241.943 65.9874 241.363 66.632 240.947C67.2824 240.525 67.9855 240.314 68.7413 240.314C69.9777 240.314 70.9386 240.722 71.6242 241.536C72.3097 242.351 72.6525 243.517 72.6525 245.034V245.711H66.2101C66.2335 246.648 66.506 247.407 67.0275 247.987C67.5548 248.562 68.2228 248.849 69.0314 248.849C69.6056 248.849 70.0919 248.731 70.4904 248.497C70.8888 248.263 71.2374 247.952 71.5363 247.565L72.5294 248.339C71.7326 249.563 70.5372 250.176 68.9435 250.176ZM68.7413 241.65C68.0851 241.65 67.5343 241.891 67.089 242.371C66.6437 242.846 66.3683 243.514 66.2628 244.375H71.0265V244.252C70.9796 243.426 70.757 242.787 70.3585 242.336C69.9601 241.879 69.421 241.65 68.7413 241.65ZM76.3087 250H74.6828V236.5H76.3087V250ZM79.7189 250V241.747H78.216V240.49H79.7189V239.515C79.7189 238.495 79.9913 237.707 80.5363 237.15C81.0812 236.594 81.8517 236.315 82.8478 236.315C83.2228 236.315 83.5949 236.365 83.964 236.465L83.8761 237.783C83.6007 237.73 83.3078 237.704 82.9972 237.704C82.4699 237.704 82.0626 237.859 81.7755 238.17C81.4884 238.475 81.3449 238.914 81.3449 239.488V240.49H83.3751V241.747H81.3449V250H79.7189ZM93.588 250.176C92.299 250.176 91.2501 249.754 90.4415 248.91C89.6329 248.061 89.2287 246.927 89.2287 245.509V245.21C89.2287 244.267 89.4074 243.426 89.7648 242.688C90.1281 241.943 90.632 241.363 91.2765 240.947C91.9269 240.525 92.63 240.314 93.3859 240.314C94.6222 240.314 95.5831 240.722 96.2687 241.536C96.9542 242.351 97.297 243.517 97.297 245.034V245.711H90.8546C90.8781 246.648 91.1505 247.407 91.672 247.987C92.1994 248.562 92.8673 248.849 93.6759 248.849C94.2501 248.849 94.7365 248.731 95.1349 248.497C95.5333 248.263 95.882 247.952 96.1808 247.565L97.174 248.339C96.3771 249.563 95.1818 250.176 93.588 250.176ZM93.3859 241.65C92.7296 241.65 92.1788 241.891 91.7335 242.371C91.2882 242.846 91.0128 243.514 90.9074 244.375H95.671V244.252C95.6242 243.426 95.4015 242.787 95.0031 242.336C94.6046 241.879 94.0656 241.65 93.3859 241.65ZM102.377 243.962L104.486 240.49H106.385L103.274 245.192L106.482 250H104.601L102.403 246.44L100.206 250H98.3165L101.525 245.192L98.4132 240.49H100.294L102.377 243.962ZM116.15 245.351C116.15 246.798 115.818 247.964 115.156 248.849C114.494 249.733 113.598 250.176 112.467 250.176C111.313 250.176 110.404 249.81 109.742 249.077V253.656H108.116V240.49H109.602L109.681 241.545C110.343 240.725 111.263 240.314 112.441 240.314C113.583 240.314 114.485 240.745 115.148 241.606C115.816 242.468 116.15 243.666 116.15 245.201V245.351ZM114.524 245.166C114.524 244.094 114.295 243.247 113.838 242.626C113.381 242.005 112.754 241.694 111.957 241.694C110.973 241.694 110.235 242.131 109.742 243.004V247.548C110.229 248.415 110.973 248.849 111.975 248.849C112.754 248.849 113.372 248.541 113.829 247.926C114.292 247.305 114.524 246.385 114.524 245.166ZM119.99 250H118.364V236.5H119.99V250ZM128.472 250C128.378 249.812 128.302 249.479 128.243 248.998C127.487 249.783 126.585 250.176 125.536 250.176C124.599 250.176 123.828 249.912 123.225 249.385C122.627 248.852 122.328 248.178 122.328 247.363C122.328 246.373 122.703 245.605 123.453 245.061C124.209 244.51 125.27 244.234 126.635 244.234H128.217V243.487C128.217 242.919 128.047 242.468 127.707 242.134C127.367 241.794 126.866 241.624 126.204 241.624C125.624 241.624 125.138 241.771 124.745 242.063C124.353 242.356 124.156 242.711 124.156 243.127H122.522C122.522 242.652 122.689 242.195 123.023 241.756C123.362 241.311 123.819 240.959 124.394 240.701C124.974 240.443 125.61 240.314 126.301 240.314C127.397 240.314 128.255 240.59 128.876 241.141C129.497 241.686 129.819 242.438 129.843 243.399V247.776C129.843 248.649 129.954 249.344 130.177 249.859V250H128.472ZM125.774 248.761C126.283 248.761 126.767 248.629 127.224 248.365C127.681 248.102 128.012 247.759 128.217 247.337V245.386H126.943C124.95 245.386 123.954 245.969 123.954 247.135C123.954 247.645 124.124 248.043 124.464 248.33C124.804 248.617 125.24 248.761 125.774 248.761ZM133.93 240.49L133.983 241.686C134.709 240.771 135.658 240.314 136.83 240.314C138.84 240.314 139.854 241.448 139.871 243.716V250H138.245V243.707C138.239 243.021 138.081 242.515 137.771 242.187C137.466 241.858 136.988 241.694 136.338 241.694C135.811 241.694 135.348 241.835 134.949 242.116C134.551 242.397 134.24 242.767 134.018 243.224V250H132.392V240.49H133.93ZM148.194 250C148.101 249.812 148.025 249.479 147.966 248.998C147.21 249.783 146.308 250.176 145.259 250.176C144.321 250.176 143.551 249.912 142.947 249.385C142.35 248.852 142.051 248.178 142.051 247.363C142.051 246.373 142.426 245.605 143.176 245.061C143.932 244.51 144.992 244.234 146.358 244.234H147.94V243.487C147.94 242.919 147.77 242.468 147.43 242.134C147.09 241.794 146.589 241.624 145.927 241.624C145.347 241.624 144.86 241.771 144.468 242.063C144.075 242.356 143.879 242.711 143.879 243.127H142.244C142.244 242.652 142.411 242.195 142.745 241.756C143.085 241.311 143.542 240.959 144.116 240.701C144.696 240.443 145.332 240.314 146.024 240.314C147.119 240.314 147.978 240.59 148.599 241.141C149.22 241.686 149.542 242.438 149.566 243.399V247.776C149.566 248.649 149.677 249.344 149.9 249.859V250H148.194ZM145.496 248.761C146.006 248.761 146.489 248.629 146.946 248.365C147.403 248.102 147.735 247.759 147.94 247.337V245.386H146.665C144.673 245.386 143.677 245.969 143.677 247.135C143.677 247.645 143.847 248.043 144.187 248.33C144.527 248.617 144.963 248.761 145.496 248.761ZM154.32 238.188V240.49H156.096V241.747H154.32V247.645C154.32 248.025 154.4 248.312 154.558 248.506C154.716 248.693 154.985 248.787 155.366 248.787C155.554 248.787 155.812 248.752 156.14 248.682V250C155.712 250.117 155.296 250.176 154.892 250.176C154.165 250.176 153.617 249.956 153.248 249.517C152.879 249.077 152.694 248.453 152.694 247.645V241.747H150.963V240.49H152.694V238.188H154.32ZM157.397 245.157C157.397 244.226 157.578 243.388 157.942 242.644C158.311 241.899 158.82 241.325 159.471 240.921C160.127 240.517 160.874 240.314 161.712 240.314C163.007 240.314 164.053 240.763 164.85 241.659C165.652 242.556 166.054 243.748 166.054 245.236V245.351C166.054 246.276 165.875 247.108 165.518 247.847C165.166 248.579 164.659 249.15 163.997 249.561C163.341 249.971 162.585 250.176 161.73 250.176C160.441 250.176 159.395 249.728 158.592 248.831C157.795 247.935 157.397 246.748 157.397 245.271V245.157ZM159.031 245.351C159.031 246.405 159.275 247.252 159.761 247.891C160.253 248.529 160.909 248.849 161.73 248.849C162.556 248.849 163.212 248.526 163.698 247.882C164.185 247.231 164.428 246.323 164.428 245.157C164.428 244.114 164.179 243.271 163.681 242.626C163.189 241.976 162.532 241.65 161.712 241.65C160.909 241.65 160.262 241.97 159.77 242.608C159.277 243.247 159.031 244.161 159.031 245.351ZM172.69 241.949C172.443 241.908 172.177 241.888 171.89 241.888C170.823 241.888 170.1 242.342 169.719 243.25V250H168.093V240.49H169.675L169.701 241.589C170.235 240.739 170.99 240.314 171.969 240.314C172.285 240.314 172.526 240.355 172.69 240.438V241.949ZM177.462 247.618L179.677 240.49H181.417L177.594 251.468C177.002 253.05 176.062 253.841 174.773 253.841L174.465 253.814L173.859 253.7V252.382L174.298 252.417C174.849 252.417 175.277 252.306 175.581 252.083C175.892 251.86 176.147 251.453 176.346 250.861L176.706 249.895L173.314 240.49H175.089L177.462 247.618Z" fill="#B1B1B1"/>
<path d="M35.4381 195.469H28.6881V202.442H25.1725V185.379H36.2819V188.227H28.6881V192.633H35.4381V195.469ZM45.0475 202.442C44.8912 202.137 44.778 201.758 44.7076 201.305C43.8873 202.219 42.8209 202.676 41.5084 202.676C40.2662 202.676 39.235 202.317 38.4147 201.598C37.6022 200.879 37.1959 199.973 37.1959 198.879C37.1959 197.536 37.692 196.504 38.6842 195.786C39.6842 195.067 41.1256 194.704 43.0084 194.696H44.567V193.969C44.567 193.383 44.4147 192.914 44.11 192.563C43.8131 192.211 43.3405 192.036 42.692 192.036C42.1217 192.036 41.6725 192.172 41.3444 192.446C41.0241 192.719 40.8639 193.094 40.8639 193.571H37.4772C37.4772 192.836 37.7037 192.157 38.1569 191.532C38.61 190.907 39.2506 190.418 40.0787 190.067C40.9069 189.707 41.8366 189.528 42.8678 189.528C44.4303 189.528 45.6686 189.922 46.5826 190.711C47.5045 191.493 47.9655 192.594 47.9655 194.016V199.512C47.9733 200.715 48.1412 201.625 48.4694 202.243V202.442H45.0475ZM42.2467 200.086C42.7467 200.086 43.2076 199.977 43.6295 199.758C44.0514 199.532 44.3639 199.231 44.567 198.856V196.676H43.3014C41.6061 196.676 40.7037 197.262 40.5944 198.434L40.5826 198.633C40.5826 199.055 40.7311 199.403 41.028 199.676C41.3248 199.95 41.7311 200.086 42.2467 200.086ZM57.4342 198.938C57.4342 198.524 57.2272 198.2 56.8131 197.965C56.4069 197.723 55.7506 197.508 54.8444 197.321C51.8287 196.688 50.3209 195.407 50.3209 193.477C50.3209 192.352 50.7858 191.414 51.7155 190.664C52.653 189.907 53.8756 189.528 55.3834 189.528C56.9928 189.528 58.278 189.907 59.2389 190.664C60.2076 191.422 60.692 192.407 60.692 193.618H57.3053C57.3053 193.133 57.1491 192.735 56.8366 192.422C56.5241 192.102 56.0358 191.942 55.3717 191.942C54.8014 191.942 54.36 192.071 54.0475 192.329C53.735 192.586 53.5787 192.914 53.5787 193.313C53.5787 193.688 53.7545 193.993 54.1061 194.227C54.4655 194.454 55.067 194.653 55.9108 194.825C56.7545 194.989 57.4655 195.176 58.0436 195.387C59.8326 196.043 60.7272 197.18 60.7272 198.797C60.7272 199.954 60.2311 200.891 59.2389 201.61C58.2467 202.321 56.9655 202.676 55.3951 202.676C54.3326 202.676 53.3873 202.489 52.5592 202.114C51.7389 201.731 51.0944 201.211 50.6256 200.555C50.1569 199.891 49.9225 199.176 49.9225 198.411H53.1334C53.1647 199.012 53.3873 199.473 53.8014 199.793C54.2155 200.114 54.7701 200.274 55.4655 200.274C56.1139 200.274 56.6022 200.153 56.9303 199.911C57.2662 199.661 57.4342 199.336 57.4342 198.938ZM66.9733 186.645V189.762H69.1412V192.247H66.9733V198.575C66.9733 199.043 67.0631 199.379 67.2428 199.582C67.4225 199.786 67.7662 199.887 68.2741 199.887C68.6491 199.887 68.9811 199.86 69.2701 199.805V202.372C68.6061 202.575 67.9225 202.676 67.2194 202.676C64.8444 202.676 63.6334 201.477 63.5866 199.079V192.247H61.735V189.762H63.5866V186.645H66.9733ZM80.7428 199.618H88.2076V202.442H77.2272V185.379H80.7428V199.618ZM95.8483 202.676C93.9889 202.676 92.4733 202.106 91.3014 200.965C90.1373 199.825 89.5553 198.305 89.5553 196.407V196.079C89.5553 194.805 89.8014 193.668 90.2936 192.668C90.7858 191.661 91.4811 190.887 92.3795 190.348C93.2858 189.801 94.317 189.528 95.4733 189.528C97.2076 189.528 98.5709 190.075 99.5631 191.168C100.563 192.262 101.063 193.813 101.063 195.821V197.204H92.9889C93.0983 198.032 93.4264 198.696 93.9733 199.196C94.528 199.696 95.2272 199.946 96.0709 199.946C97.3756 199.946 98.3951 199.473 99.1295 198.528L100.794 200.391C100.286 201.11 99.5983 201.672 98.7311 202.079C97.8639 202.477 96.903 202.676 95.8483 202.676ZM95.4616 192.27C94.7897 192.27 94.2428 192.497 93.8209 192.95C93.4069 193.403 93.1412 194.051 93.0241 194.895H97.735V194.625C97.7194 193.875 97.5162 193.297 97.1256 192.891C96.735 192.477 96.1803 192.27 95.4616 192.27ZM110.344 202.442C110.188 202.137 110.075 201.758 110.005 201.305C109.184 202.219 108.118 202.676 106.805 202.676C105.563 202.676 104.532 202.317 103.712 201.598C102.899 200.879 102.493 199.973 102.493 198.879C102.493 197.536 102.989 196.504 103.981 195.786C104.981 195.067 106.422 194.704 108.305 194.696H109.864V193.969C109.864 193.383 109.712 192.914 109.407 192.563C109.11 192.211 108.637 192.036 107.989 192.036C107.419 192.036 106.969 192.172 106.641 192.446C106.321 192.719 106.161 193.094 106.161 193.571H102.774C102.774 192.836 103.001 192.157 103.454 191.532C103.907 190.907 104.547 190.418 105.376 190.067C106.204 189.707 107.133 189.528 108.165 189.528C109.727 189.528 110.965 189.922 111.88 190.711C112.801 191.493 113.262 192.594 113.262 194.016V199.512C113.27 200.715 113.438 201.625 113.766 202.243V202.442H110.344ZM107.544 200.086C108.044 200.086 108.505 199.977 108.926 199.758C109.348 199.532 109.661 199.231 109.864 198.856V196.676H108.598C106.903 196.676 106.001 197.262 105.891 198.434L105.88 198.633C105.88 199.055 106.028 199.403 106.325 199.676C106.622 199.95 107.028 200.086 107.544 200.086ZM122.989 192.938C122.528 192.875 122.122 192.844 121.77 192.844C120.489 192.844 119.649 193.278 119.251 194.145V202.442H115.864V189.762H119.063L119.157 191.274C119.837 190.11 120.778 189.528 121.981 189.528C122.356 189.528 122.708 189.579 123.036 189.68L122.989 192.938ZM127.747 189.762L127.852 191.227C128.758 190.094 129.973 189.528 131.497 189.528C132.84 189.528 133.84 189.922 134.497 190.711C135.153 191.5 135.489 192.68 135.505 194.25V202.442H132.118V194.332C132.118 193.614 131.962 193.094 131.649 192.774C131.337 192.446 130.817 192.282 130.09 192.282C129.137 192.282 128.422 192.688 127.946 193.5V202.442H124.559V189.762H127.747ZM143.919 202.676C142.059 202.676 140.544 202.106 139.372 200.965C138.208 199.825 137.626 198.305 137.626 196.407V196.079C137.626 194.805 137.872 193.668 138.364 192.668C138.856 191.661 139.551 190.887 140.45 190.348C141.356 189.801 142.387 189.528 143.544 189.528C145.278 189.528 146.641 190.075 147.633 191.168C148.633 192.262 149.133 193.813 149.133 195.821V197.204H141.059C141.169 198.032 141.497 198.696 142.044 199.196C142.598 199.696 143.297 199.946 144.141 199.946C145.446 199.946 146.465 199.473 147.2 198.528L148.864 200.391C148.356 201.11 147.669 201.672 146.801 202.079C145.934 202.477 144.973 202.676 143.919 202.676ZM143.532 192.27C142.86 192.27 142.313 192.497 141.891 192.95C141.477 193.403 141.212 194.051 141.094 194.895H145.805V194.625C145.79 193.875 145.587 193.297 145.196 192.891C144.805 192.477 144.251 192.27 143.532 192.27ZM158.192 192.938C157.731 192.875 157.325 192.844 156.973 192.844C155.692 192.844 154.852 193.278 154.454 194.145V202.442H151.067V189.762H154.266L154.36 191.274C155.04 190.11 155.981 189.528 157.184 189.528C157.559 189.528 157.911 189.579 158.239 189.68L158.192 192.938Z" fill="white"/>
<defs>
<clipPath id="clip0">
<rect width="180.311" height="171.911" fill="white" transform="translate(0.688965)"/>
</clipPath>
</defs>
</svg>
