<svg width="688" height="111" viewBox="0 0 688 111" fill="none" xmlns="http://www.w3.org/2000/svg">
<path d="M3.10763 17.2V15.2H0.851072L1.12211 17.4402L3.10763 17.2ZM15.2676 17.2L17.2574 16.9976L17.0746 15.2H15.2676V17.2ZM19.1076 54.96L17.1179 55.1623L21.0911 55.2169L19.1076 54.96ZM23.9876 17.28V15.28H22.23L22.0042 17.0231L23.9876 17.28ZM33.5076 17.28L35.4892 17.009L35.2527 15.28H33.5076V17.28ZM38.6276 54.72L36.6461 54.991L40.6168 54.9278L38.6276 54.72ZM42.5476 17.2V15.2H40.7457L40.5585 16.9922L42.5476 17.2ZM54.5476 17.2L56.5334 17.4378L56.8014 15.2H54.5476V17.2ZM46.7876 82V84H48.5624L48.7734 82.2378L46.7876 82ZM34.3076 82L32.3273 82.2794L32.57 84H34.3076V82ZM28.7876 42.88L30.768 42.6006L26.8051 42.6165L28.7876 42.88ZM23.5876 82V84H25.3394L25.5702 82.2635L23.5876 82ZM10.9476 82L8.96211 82.2402L9.17502 84H10.9476V82ZM3.10763 19.2H15.2676V15.2H3.10763V19.2ZM13.2779 17.4023L17.1179 55.1623L21.0974 54.7577L17.2574 16.9976L13.2779 17.4023ZM21.0911 55.2169L25.9711 17.5369L22.0042 17.0231L17.1242 54.7031L21.0911 55.2169ZM23.9876 19.28H33.5076V15.28H23.9876V19.28ZM31.5261 17.551L36.6461 54.991L40.6092 54.449L35.4892 17.009L31.5261 17.551ZM40.6168 54.9278L44.5368 17.4078L40.5585 16.9922L36.6385 54.5122L40.6168 54.9278ZM42.5476 19.2H54.5476V15.2H42.5476V19.2ZM52.5618 16.9622L44.8018 81.7622L48.7734 82.2378L56.5334 17.4378L52.5618 16.9622ZM46.7876 80H34.3076V84H46.7876V80ZM36.288 81.7206L30.768 42.6006L26.8073 43.1594L32.3273 82.2794L36.288 81.7206ZM26.8051 42.6165L21.6051 81.7365L25.5702 82.2635L30.7702 43.1435L26.8051 42.6165ZM23.5876 80H10.9476V84H23.5876V80ZM12.9332 81.7598L5.09315 16.9598L1.12211 17.4402L8.96211 82.2402L12.9332 81.7598ZM61.5289 17.2V15.2H59.5289V17.2H61.5289ZM90.6489 17.2H92.6489V15.2H90.6489V17.2ZM90.6489 26.96V28.96H92.6489V26.96H90.6489ZM75.8489 26.96V24.96H73.8489V26.96H75.8489ZM75.8489 43.04H73.8489V45.04H75.8489V43.04ZM87.1289 43.04H89.1289V41.04H87.1289V43.04ZM87.1289 52.96V54.96H89.1289V52.96H87.1289ZM75.8489 52.96V50.96H73.8489V52.96H75.8489ZM75.8489 72.32H73.8489V74.32H75.8489V72.32ZM90.8089 72.32H92.8089V70.32H90.8089V72.32ZM90.8089 82V84H92.8089V82H90.8089ZM61.5289 82H59.5289V84H61.5289V82ZM61.5289 19.2H90.6489V15.2H61.5289V19.2ZM88.6489 17.2V26.96H92.6489V17.2H88.6489ZM90.6489 24.96H75.8489V28.96H90.6489V24.96ZM73.8489 26.96V43.04H77.8489V26.96H73.8489ZM75.8489 45.04H87.1289V41.04H75.8489V45.04ZM85.1289 43.04V52.96H89.1289V43.04H85.1289ZM87.1289 50.96H75.8489V54.96H87.1289V50.96ZM73.8489 52.96V72.32H77.8489V52.96H73.8489ZM75.8489 74.32H90.8089V70.32H75.8489V74.32ZM88.8089 72.32V82H92.8089V72.32H88.8089ZM90.8089 80H61.5289V84H90.8089V80ZM63.5289 82V17.2H59.5289V82H63.5289ZM97.3101 17.2V15.2H95.3101V17.2H97.3101ZM111.63 17.2H113.63V15.2H111.63V17.2ZM111.63 72.32H109.63V74.32H111.63V72.32ZM126.51 72.32H128.51V70.32H126.51V72.32ZM126.51 82V84H128.51V82H126.51ZM97.3101 82H95.3101V84H97.3101V82ZM97.3101 19.2H111.63V15.2H97.3101V19.2ZM109.63 17.2V72.32H113.63V17.2H109.63ZM111.63 74.32H126.51V70.32H111.63V74.32ZM124.51 72.32V82H128.51V72.32H124.51ZM126.51 80H97.3101V84H126.51V80ZM99.3101 82V17.2H95.3101V82H99.3101ZM135.283 77.44L133.711 78.6756L133.72 78.6881L133.73 78.7003L135.283 77.44ZM135.283 21.84L136.838 23.0977L136.843 23.0922L136.847 23.0866L135.283 21.84ZM168.963 40.64V42.64H170.963V40.64H168.963ZM154.963 40.64H152.963V42.64H154.963V40.64ZM154.163 28.4L152.306 29.1428L152.306 29.1428L154.163 28.4ZM146.323 28.56L148.139 29.3981L148.145 29.3852L148.151 29.3723L146.323 28.56ZM146.323 70.8L144.507 71.6381L144.527 71.6809L144.549 71.7227L146.323 70.8ZM154.083 70.8L152.241 70.0207L152.234 70.0389L152.226 70.0572L154.083 70.8ZM154.963 58.08V56.08H152.963V58.08H154.963ZM168.963 58.08H170.963V56.08H168.963V58.08ZM164.723 77.92L166.254 79.2075L166.259 79.2016L166.264 79.1956L164.723 77.92ZM150.323 80.96C143.586 80.96 139.287 79.2 136.836 76.1797L133.73 78.7003C137.252 83.04 142.981 84.96 150.323 84.96V80.96ZM136.856 76.2044C134.303 72.9556 132.883 68.102 132.883 61.36H128.883C128.883 68.5913 130.397 74.4578 133.711 78.6756L136.856 76.2044ZM132.883 61.36V38H128.883V61.36H132.883ZM132.883 38C132.883 31.0794 134.311 26.2225 136.838 23.0977L133.728 20.5823C130.389 24.7108 128.883 30.6273 128.883 38H132.883ZM136.847 23.0866C139.24 20.0846 143.523 18.32 150.323 18.32V14.32C142.937 14.32 137.193 16.2354 133.719 20.5934L136.847 23.0866ZM150.323 18.32C156.846 18.32 160.939 19.8939 163.214 22.5117L166.233 19.8883C162.854 15.9994 157.348 14.32 150.323 14.32V18.32ZM163.214 22.5117C165.62 25.282 166.963 29.363 166.963 35.04H170.963C170.963 28.7703 169.479 23.6247 166.233 19.8883L163.214 22.5117ZM166.963 35.04V40.64H170.963V35.04H166.963ZM168.963 38.64H154.963V42.64H168.963V38.64ZM156.963 40.64V34.16H152.963V40.64H156.963ZM156.963 34.16C156.963 31.56 156.694 29.3406 156.02 27.6572L152.306 29.1428C152.7 30.1261 152.963 31.7467 152.963 34.16H156.963ZM156.02 27.6572C155.058 25.2507 152.767 24.4 150.323 24.4V28.4C151.933 28.4 152.202 28.8826 152.306 29.1428L156.02 27.6572ZM150.323 24.4C149.086 24.4 147.893 24.6183 146.853 25.1802C145.781 25.7592 144.988 26.6409 144.496 27.7477L148.151 29.3723C148.299 29.0391 148.492 28.8408 148.754 28.6998C149.046 28.5417 149.534 28.4 150.323 28.4V24.4ZM144.507 27.7219C143.693 29.4873 143.363 31.767 143.363 34.4H147.363C147.363 32.0197 147.674 30.406 148.139 29.3981L144.507 27.7219ZM143.363 34.4V64.88H147.363V34.4H143.363ZM143.363 64.88C143.363 67.559 143.691 69.8687 144.507 71.6381L148.139 69.9619C147.676 68.958 147.363 67.321 147.363 64.88H143.363ZM144.549 71.7227C145.696 73.9294 147.877 74.8 150.323 74.8V70.8C148.823 70.8 148.337 70.3373 148.098 69.8773L144.549 71.7227ZM150.323 74.8C151.517 74.8 152.676 74.6011 153.682 74.0657C154.732 73.5077 155.5 72.6426 155.94 71.5428L152.226 70.0572C152.133 70.2908 152.008 70.4256 151.804 70.5343C151.557 70.6656 151.103 70.8 150.323 70.8V74.8ZM155.925 71.5793C156.665 69.8315 156.963 67.5463 156.963 64.88H152.963C152.963 67.3337 152.675 68.9952 152.241 70.0207L155.925 71.5793ZM156.963 64.88V58.08H152.963V64.88H156.963ZM154.963 60.08H168.963V56.08H154.963V60.08ZM166.963 58.08V63.68H170.963V58.08H166.963ZM166.963 63.68C166.963 69.4666 165.618 73.7032 163.183 76.6444L166.264 79.1956C169.481 75.3101 170.963 70.0534 170.963 63.68H166.963ZM163.193 76.6325C160.913 79.3419 156.828 80.96 150.323 80.96V84.96C157.365 84.96 162.88 83.2181 166.254 79.2075L163.193 76.6325ZM180.441 77.6L178.898 78.8714L178.902 78.877L178.907 78.8826L180.441 77.6ZM180.441 21.68L181.966 22.974L181.971 22.9683L181.976 22.9626L180.441 21.68ZM210.441 21.68L208.907 22.9626L208.912 22.9693L208.918 22.976L210.441 21.68ZM210.441 77.6L208.909 76.3152L208.907 76.3174L210.441 77.6ZM199.401 70.8L201.204 71.6655L201.211 71.6518L201.217 71.6381L199.401 70.8ZM199.401 28.4L197.598 29.2655L197.598 29.2655L199.401 28.4ZM191.561 28.48L193.364 29.3455L193.371 29.3318L193.377 29.3181L191.561 28.48ZM191.481 70.8L189.639 71.5793L189.645 71.5924L189.651 71.6055L191.481 70.8ZM195.401 80.96C188.706 80.96 184.424 79.2467 181.976 76.3174L178.907 78.8826C182.432 83.0999 188.124 84.96 195.401 84.96V80.96ZM181.985 76.3286C179.409 73.2006 177.961 68.3985 177.961 61.6H173.961C173.961 68.8815 175.5 74.7461 178.898 78.8714L181.985 76.3286ZM177.961 61.6V37.52H173.961V61.6H177.961ZM177.961 37.52C177.961 30.7153 179.412 25.9848 181.966 22.974L178.916 20.386C175.498 24.4152 173.961 30.2446 173.961 37.52H177.961ZM181.976 22.9626C184.424 20.0333 188.706 18.32 195.401 18.32V14.32C188.124 14.32 182.432 16.1801 178.907 20.3974L181.976 22.9626ZM195.401 18.32C202.156 18.32 206.461 20.0363 208.907 22.9626L211.976 20.3974C208.449 16.177 202.726 14.32 195.401 14.32V18.32ZM208.918 22.976C211.531 26.0469 213.001 30.7832 213.001 37.52H217.001C217.001 30.2834 215.432 24.4598 211.965 20.384L208.918 22.976ZM213.001 37.52V61.6H217.001V37.52H213.001ZM213.001 61.6C213.001 68.3917 211.53 73.1881 208.909 76.3152L211.974 78.8848C215.433 74.7585 217.001 68.8883 217.001 61.6H213.001ZM208.907 76.3174C206.461 79.2437 202.156 80.96 195.401 80.96V84.96C202.726 84.96 208.449 83.103 211.976 78.8826L208.907 76.3174ZM195.401 74.8C197.865 74.8 200.109 73.9485 201.204 71.6655L197.598 69.9345C197.414 70.3182 196.991 70.8 195.401 70.8V74.8ZM201.217 71.6381C202.026 69.8858 202.361 67.696 202.361 65.2H198.361C198.361 67.3974 198.057 68.9409 197.585 69.9619L201.217 71.6381ZM202.361 65.2V34H198.361V65.2H202.361ZM202.361 34C202.361 31.4655 202.03 29.2552 201.204 27.5345L197.598 29.2655C198.052 30.2115 198.361 31.7345 198.361 34H202.361ZM201.204 27.5345C200.109 25.2515 197.865 24.4 195.401 24.4V28.4C196.991 28.4 197.414 28.8818 197.598 29.2655L201.204 27.5345ZM195.401 24.4C194.211 24.4 193.06 24.6138 192.049 25.1614C191.01 25.7242 190.237 26.5772 189.745 27.6419L193.377 29.3181C193.526 28.9962 193.713 28.8091 193.954 28.6786C194.223 28.5329 194.672 28.4 195.401 28.4V24.4ZM189.758 27.6145C188.935 29.3306 188.601 31.5107 188.601 34H192.601C192.601 31.796 192.908 30.296 193.364 29.3455L189.758 27.6145ZM188.601 34V65.2H192.601V34H188.601ZM188.601 65.2C188.601 67.6809 188.907 69.8473 189.639 71.5793L193.323 70.0207C192.883 68.9794 192.601 67.4124 192.601 65.2H188.601ZM189.651 71.6055C190.682 73.9489 192.947 74.8 195.401 74.8V70.8C193.802 70.8 193.454 70.3178 193.312 69.9945L189.651 71.6055ZM224.596 17.2V15.2H222.631L222.597 17.1654L224.596 17.2ZM239.956 17.2L241.922 16.8286L241.614 15.2H239.956V17.2ZM247.076 54.88L245.111 55.2513L249.036 55.2794L247.076 54.88ZM254.756 17.2V15.2H253.123L252.797 16.8006L254.756 17.2ZM269.556 17.2L271.556 17.1654L271.522 15.2H269.556V17.2ZM270.676 82V84H272.711L272.676 81.9654L270.676 82ZM260.516 82L258.517 82.0556L258.571 84H260.516V82ZM259.316 38.88L261.316 38.8244L257.346 38.5364L259.316 38.88ZM251.796 82V84H253.478L253.767 82.3436L251.796 82ZM242.756 82L240.789 82.3622L241.091 84H242.756V82ZM234.756 38.56L236.723 38.1978L232.757 38.5158L234.756 38.56ZM233.796 82V84H235.753L235.796 82.0442L233.796 82ZM223.476 82L221.477 81.9654L221.442 84H223.476V82ZM224.596 19.2H239.956V15.2H224.596V19.2ZM237.991 17.5713L245.111 55.2513L249.042 54.5087L241.922 16.8286L237.991 17.5713ZM249.036 55.2794L256.716 17.5994L252.797 16.8006L245.117 54.4806L249.036 55.2794ZM254.756 19.2H269.556V15.2H254.756V19.2ZM267.557 17.2346L268.677 82.0346L272.676 81.9654L271.556 17.1654L267.557 17.2346ZM270.676 80H260.516V84H270.676V80ZM262.516 81.9444L261.316 38.8244L257.317 38.9356L258.517 82.0556L262.516 81.9444ZM257.346 38.5364L249.826 81.6564L253.767 82.3436L261.287 39.2236L257.346 38.5364ZM251.796 80H242.756V84H251.796V80ZM244.723 81.6378L236.723 38.1978L232.789 38.9222L240.789 82.3622L244.723 81.6378ZM232.757 38.5158L231.797 81.9558L235.796 82.0442L236.756 38.6042L232.757 38.5158ZM233.796 80H223.476V84H233.796V80ZM225.476 82.0346L226.596 17.2346L222.597 17.1654L221.477 81.9654L225.476 82.0346ZM280.045 17.2V15.2H278.045V17.2H280.045ZM309.165 17.2H311.165V15.2H309.165V17.2ZM309.165 26.96V28.96H311.165V26.96H309.165ZM294.365 26.96V24.96H292.365V26.96H294.365ZM294.365 43.04H292.365V45.04H294.365V43.04ZM305.645 43.04H307.645V41.04H305.645V43.04ZM305.645 52.96V54.96H307.645V52.96H305.645ZM294.365 52.96V50.96H292.365V52.96H294.365ZM294.365 72.32H292.365V74.32H294.365V72.32ZM309.325 72.32H311.325V70.32H309.325V72.32ZM309.325 82V84H311.325V82H309.325ZM280.045 82H278.045V84H280.045V82ZM280.045 19.2H309.165V15.2H280.045V19.2ZM307.165 17.2V26.96H311.165V17.2H307.165ZM309.165 24.96H294.365V28.96H309.165V24.96ZM292.365 26.96V43.04H296.365V26.96H292.365ZM294.365 45.04H305.645V41.04H294.365V45.04ZM303.645 43.04V52.96H307.645V43.04H303.645ZM305.645 50.96H294.365V54.96H305.645V50.96ZM292.365 52.96V72.32H296.365V52.96H292.365ZM294.365 74.32H309.325V70.32H294.365V74.32ZM307.325 72.32V82H311.325V72.32H307.325ZM309.325 80H280.045V84H309.325V80ZM282.045 82V17.2H278.045V82H282.045ZM342.135 27.84H344.135V25.84H342.135V27.84ZM332.375 27.84H330.375V29.84H332.375V27.84ZM332.375 17.2V15.2H330.375V17.2H332.375ZM366.215 17.2H368.215V15.2H366.215V17.2ZM366.215 27.84V29.84H368.215V27.84H366.215ZM356.535 27.84V25.84H354.535V27.84H356.535ZM356.535 82V84H358.535V82H356.535ZM342.135 82H340.135V84H342.135V82ZM342.135 25.84H332.375V29.84H342.135V25.84ZM334.375 27.84V17.2H330.375V27.84H334.375ZM332.375 19.2H366.215V15.2H332.375V19.2ZM364.215 17.2V27.84H368.215V17.2H364.215ZM366.215 25.84H356.535V29.84H366.215V25.84ZM354.535 27.84V82H358.535V27.84H354.535ZM356.535 80H342.135V84H356.535V80ZM344.135 82V27.84H340.135V82H344.135ZM374.895 77.6L373.351 78.8714L373.355 78.877L373.36 78.8826L374.895 77.6ZM374.895 21.68L376.42 22.974L376.424 22.9683L376.429 22.9626L374.895 21.68ZM404.895 21.68L403.36 22.9626L403.366 22.9693L403.371 22.976L404.895 21.68ZM404.895 77.6L403.362 76.3152L403.36 76.3174L404.895 77.6ZM393.855 70.8L395.658 71.6655L395.664 71.6518L395.67 71.6381L393.855 70.8ZM393.855 28.4L392.051 29.2655L392.051 29.2655L393.855 28.4ZM386.015 28.48L387.818 29.3455L387.824 29.3318L387.83 29.3181L386.015 28.48ZM385.935 70.8L384.093 71.5793L384.098 71.5924L384.104 71.6055L385.935 70.8ZM389.855 80.96C383.159 80.96 378.877 79.2467 376.429 76.3174L373.36 78.8826C376.885 83.0999 382.577 84.96 389.855 84.96V80.96ZM376.438 76.3286C373.862 73.2006 372.415 68.3985 372.415 61.6H368.415C368.415 68.8815 369.953 74.7461 373.351 78.8714L376.438 76.3286ZM372.415 61.6V37.52H368.415V61.6H372.415ZM372.415 37.52C372.415 30.7153 373.865 25.9848 376.42 22.974L373.369 20.386C369.951 24.4152 368.415 30.2446 368.415 37.52H372.415ZM376.429 22.9626C378.877 20.0333 383.159 18.32 389.855 18.32V14.32C382.577 14.32 376.885 16.1801 373.36 20.3974L376.429 22.9626ZM389.855 18.32C396.609 18.32 400.914 20.0363 403.36 22.9626L406.429 20.3974C402.902 16.177 397.18 14.32 389.855 14.32V18.32ZM403.371 22.976C405.984 26.0469 407.455 30.7832 407.455 37.52H411.455C411.455 30.2834 409.885 24.4598 406.418 20.384L403.371 22.976ZM407.455 37.52V61.6H411.455V37.52H407.455ZM407.455 61.6C407.455 68.3917 405.983 73.1881 403.362 76.3152L406.427 78.8848C409.886 74.7585 411.455 68.8883 411.455 61.6H407.455ZM403.36 76.3174C400.914 79.2437 396.609 80.96 389.855 80.96V84.96C397.18 84.96 402.902 83.103 406.429 78.8826L403.36 76.3174ZM389.855 74.8C392.318 74.8 394.562 73.9485 395.658 71.6655L392.051 69.9345C391.867 70.3182 391.444 70.8 389.855 70.8V74.8ZM395.67 71.6381C396.479 69.8858 396.815 67.696 396.815 65.2H392.815C392.815 67.3974 392.51 68.9409 392.039 69.9619L395.67 71.6381ZM396.815 65.2V34H392.815V65.2H396.815ZM396.815 34C396.815 31.4655 396.483 29.2552 395.658 27.5345L392.051 29.2655C392.506 30.2115 392.815 31.7345 392.815 34H396.815ZM395.658 27.5345C394.562 25.2515 392.318 24.4 389.855 24.4V28.4C391.444 28.4 391.867 28.8818 392.051 29.2655L395.658 27.5345ZM389.855 24.4C388.664 24.4 387.513 24.6138 386.502 25.1614C385.463 25.7242 384.69 26.5772 384.199 27.6419L387.83 29.3181C387.979 28.9962 388.166 28.8091 388.407 28.6786C388.676 28.5329 389.125 28.4 389.855 28.4V24.4ZM384.211 27.6145C383.388 29.3306 383.055 31.5107 383.055 34H387.055C387.055 31.796 387.361 30.296 387.818 29.3455L384.211 27.6145ZM383.055 34V65.2H387.055V34H383.055ZM383.055 65.2C383.055 67.6809 383.36 69.8473 384.093 71.5793L387.776 70.0207C387.336 68.9794 387.055 67.4124 387.055 65.2H383.055ZM384.104 71.6055C385.135 73.9489 387.4 74.8 389.855 74.8V70.8C388.255 70.8 387.907 70.3178 387.765 69.9945L384.104 71.6055ZM439.518 17.2V15.2H437.553L437.519 17.1654L439.518 17.2ZM454.878 17.2L456.843 16.8286L456.536 15.2H454.878V17.2ZM461.998 54.88L460.033 55.2513L463.958 55.2794L461.998 54.88ZM469.678 17.2V15.2H468.045L467.719 16.8006L469.678 17.2ZM484.478 17.2L486.478 17.1654L486.444 15.2H484.478V17.2ZM485.598 82V84H487.633L487.598 81.9654L485.598 82ZM475.438 82L473.439 82.0556L473.493 84H475.438V82ZM474.238 38.88L476.237 38.8244L472.268 38.5364L474.238 38.88ZM466.718 82V84H468.4L468.689 82.3436L466.718 82ZM457.678 82L455.711 82.3622L456.013 84H457.678V82ZM449.678 38.56L451.645 38.1978L447.679 38.5158L449.678 38.56ZM448.718 82V84H450.675L450.718 82.0442L448.718 82ZM438.398 82L436.399 81.9654L436.363 84H438.398V82ZM439.518 19.2H454.878V15.2H439.518V19.2ZM452.913 17.5713L460.033 55.2513L463.963 54.5087L456.843 16.8286L452.913 17.5713ZM463.958 55.2794L471.638 17.5994L467.719 16.8006L460.039 54.4806L463.958 55.2794ZM469.678 19.2H484.478V15.2H469.678V19.2ZM482.479 17.2346L483.599 82.0346L487.598 81.9654L486.478 17.1654L482.479 17.2346ZM485.598 80H475.438V84H485.598V80ZM477.437 81.9444L476.237 38.8244L472.239 38.9356L473.439 82.0556L477.437 81.9444ZM472.268 38.5364L464.748 81.6564L468.689 82.3436L476.209 39.2236L472.268 38.5364ZM466.718 80H457.678V84H466.718V80ZM459.645 81.6378L451.645 38.1978L447.711 38.9222L455.711 82.3622L459.645 81.6378ZM447.679 38.5158L446.719 81.9558L450.718 82.0442L451.678 38.6042L447.679 38.5158ZM448.718 80H438.398V84H448.718V80ZM440.398 82.0346L441.518 17.2346L437.519 17.1654L436.399 81.9654L440.398 82.0346ZM502.501 55.52H504.501V55.2064L504.405 54.9079L502.501 55.52ZM490.181 17.2V15.2H487.438L488.277 17.8121L490.181 17.2ZM503.701 17.2L505.617 16.6239L505.188 15.2H503.701V17.2ZM509.861 37.68L507.946 38.2561L509.967 44.974L511.792 38.2005L509.861 37.68ZM515.381 17.2V15.2H513.849L513.45 16.6795L515.381 17.2ZM528.341 17.2L530.249 17.8013L531.069 15.2H528.341V17.2ZM516.261 55.52L514.354 54.9187L514.261 55.2122V55.52H516.261ZM516.261 82V84H518.261V82H516.261ZM502.501 82H500.501V84H502.501V82ZM504.405 54.9079L492.085 16.5878L488.277 17.8121L500.597 56.1321L504.405 54.9079ZM490.181 19.2H503.701V15.2H490.181V19.2ZM501.786 17.7761L507.946 38.2561L511.777 37.1039L505.617 16.6239L501.786 17.7761ZM511.792 38.2005L517.312 17.7205L513.45 16.6795L507.93 37.1595L511.792 38.2005ZM515.381 19.2H528.341V15.2H515.381V19.2ZM526.434 16.5987L514.354 54.9187L518.169 56.1213L530.249 17.8013L526.434 16.5987ZM514.261 55.52V82H518.261V55.52H514.261ZM516.261 80H502.501V84H516.261V80ZM504.501 82V55.52H500.501V82H504.501ZM557.623 78.08L556.139 79.4206L556.15 79.4331L556.162 79.4455L557.623 78.08ZM552.823 62.4L552.526 60.4222L550.771 60.686L550.824 62.4597L552.823 62.4ZM565.063 60.56L567.063 60.534L567.033 58.2414L564.766 58.5822L565.063 60.56ZM566.503 69.44L564.714 70.3344L564.73 70.3664L564.747 70.3977L566.503 69.44ZM572.583 60.88L570.882 61.931L570.893 61.9489L570.904 61.9665L572.583 60.88ZM567.223 55.04L565.909 56.5478L565.92 56.5567L565.93 56.5655L567.223 55.04ZM561.623 50.16L562.937 48.6522L562.926 48.6426L562.915 48.6332L561.623 50.16ZM555.143 42.72L553.398 43.6972L553.41 43.7181L553.422 43.7386L555.143 42.72ZM557.703 20.72L556.364 19.2346L556.358 19.2401L556.352 19.2457L557.703 20.72ZM583.543 21.68L581.837 22.7239L581.843 22.7331L581.849 22.7423L583.543 21.68ZM587.143 34.72L587.388 36.7049L589.199 36.4815L589.142 34.6575L587.143 34.72ZM574.823 36.24L572.824 36.3035L572.894 38.4932L575.068 38.2249L574.823 36.24ZM573.863 29.04L571.959 29.652L571.973 29.6936L571.988 29.7346L573.863 29.04ZM567.703 28.4L566.026 27.31L566.019 27.321L566.012 27.332L567.703 28.4ZM568.183 37.36L566.501 38.4415L566.514 38.4624L566.528 38.483L568.183 37.36ZM572.983 42.48L574.305 40.979L574.303 40.9771L572.983 42.48ZM578.343 47.2L577.021 48.701L577.035 48.7125L577.048 48.7239L578.343 47.2ZM585.783 55.84L587.514 54.8379L587.514 54.8379L585.783 55.84ZM586.263 74.96L584.529 73.9637L584.522 73.9759L586.263 74.96ZM580.343 80.8L579.363 79.0568L579.363 79.0568L580.343 80.8ZM571.463 80.96C565.609 80.96 561.618 79.4253 559.085 76.7145L556.162 79.4455C559.709 83.2413 564.945 84.96 571.463 84.96V80.96ZM559.107 76.7394C556.582 73.9436 555.03 69.282 554.822 62.3403L550.824 62.4597C551.044 69.8114 552.691 75.603 556.139 79.4206L559.107 76.7394ZM553.121 64.3778L565.361 62.5378L564.766 58.5822L552.526 60.4222L553.121 64.3778ZM563.063 60.586C563.117 64.7465 563.594 68.0937 564.714 70.3344L568.292 68.5456C567.599 67.1596 567.116 64.5868 567.063 60.534L563.063 60.586ZM564.747 70.3977C565.359 71.5188 566.172 72.4616 567.226 73.1178C568.287 73.7786 569.483 74.08 570.743 74.08V70.08C570.137 70.08 569.692 69.9414 569.34 69.7222C568.981 69.4984 568.608 69.1212 568.259 68.4823L564.747 70.3977ZM570.743 74.08C572.419 74.08 573.973 73.5027 575.034 72.1129C576.015 70.8255 576.343 69.131 576.343 67.36H572.343C572.343 68.7357 572.071 69.4012 571.853 69.6871C571.713 69.8706 571.468 70.08 570.743 70.08V74.08ZM576.343 67.36C576.343 64.5311 575.677 61.9798 574.262 59.7935L570.904 61.9665C571.836 63.4068 572.343 65.1756 572.343 67.36H576.343ZM574.285 59.829C573.014 57.7707 571.057 55.6685 568.517 53.5145L565.93 56.5655C568.296 58.5715 569.913 60.3626 570.882 61.931L574.285 59.829ZM568.537 53.5322L562.937 48.6522L560.309 51.6678L565.909 56.5478L568.537 53.5322ZM562.915 48.6332C560.28 46.4033 558.278 44.089 556.864 41.7014L553.422 43.7386C555.102 46.5776 557.42 49.2234 560.331 51.6868L562.915 48.6332ZM556.888 41.7428C555.591 39.4259 554.903 36.6285 554.903 33.28H550.903C550.903 37.1849 551.709 40.6807 553.398 43.6972L556.888 41.7428ZM554.903 33.28C554.903 28.2487 556.368 24.6571 559.055 22.1943L556.352 19.2457C552.638 22.6496 550.903 27.4313 550.903 33.28H554.903ZM559.043 22.2054C561.832 19.6905 565.757 18.32 571.063 18.32V14.32C565.063 14.32 560.081 15.8828 556.364 19.2346L559.043 22.2054ZM571.063 18.32C576.851 18.32 580.166 19.9925 581.837 22.7239L585.249 20.6361C582.547 16.2208 577.542 14.32 571.063 14.32V18.32ZM581.849 22.7423C583.864 25.9568 584.993 29.9409 585.144 34.7825L589.142 34.6575C588.974 29.2591 587.703 24.5499 585.238 20.6177L581.849 22.7423ZM586.898 32.735L574.578 34.255L575.068 38.2249L587.388 36.7049L586.898 32.735ZM576.822 36.1765C576.715 32.7951 576.393 30.1127 575.739 28.3454L571.988 29.7346C572.4 30.8473 572.718 32.9649 572.824 36.3035L576.822 36.1765ZM575.767 28.428C575.417 27.3392 574.79 26.3765 573.811 25.7084C572.848 25.0506 571.723 24.8 570.583 24.8V28.8C571.15 28.8 571.425 28.9227 571.555 29.0116C571.67 29.0901 571.829 29.2474 571.959 29.652L575.767 28.428ZM570.583 24.8C568.65 24.8 567.072 25.7012 566.026 27.31L569.38 29.49C569.721 28.9655 570.063 28.8 570.583 28.8V24.8ZM566.012 27.332C565.157 28.6869 564.743 30.2088 564.743 31.84H568.743C568.743 30.9112 568.97 30.1397 569.394 29.468L566.012 27.332ZM564.743 31.84C564.743 34.3211 565.29 36.558 566.501 38.4415L569.866 36.2785C569.156 35.1753 568.743 33.7323 568.743 31.84H564.743ZM566.528 38.483C567.677 40.1754 569.417 42.0103 571.664 43.9829L574.303 40.9771C572.176 39.1097 570.716 37.5312 569.838 36.237L566.528 38.483ZM571.661 43.981L577.021 48.701L579.665 45.699L574.305 40.979L571.661 43.981ZM577.048 48.7239C580.107 51.3242 582.427 54.034 584.052 56.8421L587.514 54.8379C585.62 51.566 582.979 48.5158 579.639 45.6761L577.048 48.7239ZM584.052 56.8421C585.606 59.5257 586.423 62.7667 586.423 66.64H590.423C590.423 62.1933 589.48 58.2343 587.514 54.8379L584.052 56.8421ZM586.423 66.64C586.423 69.3491 585.786 71.7761 584.529 73.9638L587.997 75.9562C589.621 73.1306 590.423 70.0109 590.423 66.64H586.423ZM584.522 73.9759C583.323 76.0978 581.619 77.7878 579.363 79.0568L581.324 82.5432C584.188 80.9322 586.43 78.7289 588.004 75.9441L584.522 73.9759ZM579.363 79.0568C577.143 80.3055 574.53 80.96 571.463 80.96V84.96C575.117 84.96 578.424 84.1745 581.324 82.5432L579.363 79.0568ZM595.437 17.2V15.2H593.437V17.2H595.437ZM609.757 17.2H611.757V15.2H609.757V17.2ZM609.757 82V84H611.757V82H609.757ZM595.437 82H593.437V84H595.437V82ZM595.437 19.2H609.757V15.2H595.437V19.2ZM607.757 17.2V82H611.757V17.2H607.757ZM609.757 80H595.437V84H609.757V80ZM597.437 82V17.2H593.437V82H597.437ZM625.26 27.84H627.26V25.84H625.26V27.84ZM615.5 27.84H613.5V29.84H615.5V27.84ZM615.5 17.2V15.2H613.5V17.2H615.5ZM649.34 17.2H651.34V15.2H649.34V17.2ZM649.34 27.84V29.84H651.34V27.84H649.34ZM639.66 27.84V25.84H637.66V27.84H639.66ZM639.66 82V84H641.66V82H639.66ZM625.26 82H623.26V84H625.26V82ZM625.26 25.84H615.5V29.84H625.26V25.84ZM617.5 27.84V17.2H613.5V27.84H617.5ZM615.5 19.2H649.34V15.2H615.5V19.2ZM647.34 17.2V27.84H651.34V17.2H647.34ZM649.34 25.84H639.66V29.84H649.34V25.84ZM637.66 27.84V82H641.66V27.84H637.66ZM639.66 80H625.26V84H639.66V80ZM627.26 82V27.84H623.26V82H627.26ZM655.045 17.2V15.2H653.045V17.2H655.045ZM684.165 17.2H686.165V15.2H684.165V17.2ZM684.165 26.96V28.96H686.165V26.96H684.165ZM669.365 26.96V24.96H667.365V26.96H669.365ZM669.365 43.04H667.365V45.04H669.365V43.04ZM680.645 43.04H682.645V41.04H680.645V43.04ZM680.645 52.96V54.96H682.645V52.96H680.645ZM669.365 52.96V50.96H667.365V52.96H669.365ZM669.365 72.32H667.365V74.32H669.365V72.32ZM684.325 72.32H686.325V70.32H684.325V72.32ZM684.325 82V84H686.325V82H684.325ZM655.045 82H653.045V84H655.045V82ZM655.045 19.2H684.165V15.2H655.045V19.2ZM682.165 17.2V26.96H686.165V17.2H682.165ZM684.165 24.96H669.365V28.96H684.165V24.96ZM667.365 26.96V43.04H671.365V26.96H667.365ZM669.365 45.04H680.645V41.04H669.365V45.04ZM678.645 43.04V52.96H682.645V43.04H678.645ZM680.645 50.96H669.365V54.96H680.645V50.96ZM667.365 52.96V72.32H671.365V52.96H667.365ZM669.365 74.32H684.325V70.32H669.365V74.32ZM682.325 72.32V82H686.325V72.32H682.325ZM684.325 80H655.045V84H684.325V80ZM657.045 82V17.2H653.045V82H657.045Z" fill="#FF8A00"/>
<path d="M2.34451 36.6615V34.6615H0.0879492L0.358989 36.9018L2.34451 36.6615ZM14.5045 36.6615L16.4942 36.4592L16.3114 34.6615H14.5045V36.6615ZM18.3445 74.4215L16.3548 74.6239L20.3279 74.6784L18.3445 74.4215ZM23.2245 36.7415V34.7415H21.4668L21.2411 36.4847L23.2245 36.7415ZM32.7445 36.7415L34.7261 36.4705L34.4896 34.7415H32.7445V36.7415ZM37.8645 74.1815L35.883 74.4525L39.8537 74.3894L37.8645 74.1815ZM41.7845 36.6615V34.6615H39.9826L39.7953 36.4537L41.7845 36.6615ZM53.7845 36.6615L55.7703 36.8993L56.0383 34.6615H53.7845V36.6615ZM46.0245 101.462V103.462H47.7993L48.0103 101.699L46.0245 101.462ZM33.5445 101.462L31.5641 101.741L31.8069 103.462H33.5445V101.462ZM28.0245 62.3415L30.0049 62.0621L26.0419 62.078L28.0245 62.3415ZM22.8245 101.462V103.462H24.5763L24.8071 101.725L22.8245 101.462ZM10.1845 101.462L8.19899 101.702L8.4119 103.462H10.1845V101.462ZM2.34451 38.6615H14.5045V34.6615H2.34451V38.6615ZM12.5148 36.8639L16.3548 74.6239L20.3342 74.2192L16.4942 36.4592L12.5148 36.8639ZM20.3279 74.6784L25.2079 36.9984L21.2411 36.4847L16.3611 74.1647L20.3279 74.6784ZM23.2245 38.7415H32.7445V34.7415H23.2245V38.7415ZM30.763 37.0125L35.883 74.4525L39.8461 73.9105L34.7261 36.4705L30.763 37.0125ZM39.8537 74.3894L43.7737 36.8694L39.7953 36.4537L35.8753 73.9737L39.8537 74.3894ZM41.7845 38.6615H53.7845V34.6615H41.7845V38.6615ZM51.7987 36.4237L44.0387 101.224L48.0103 101.699L55.7703 36.8993L51.7987 36.4237ZM46.0245 99.4615H33.5445V103.462H46.0245V99.4615ZM35.5249 101.182L30.0049 62.0621L26.0441 62.621L31.5641 101.741L35.5249 101.182ZM26.0419 62.078L20.8419 101.198L24.8071 101.725L30.0071 62.6051L26.0419 62.078ZM22.8245 99.4615H10.1845V103.462H22.8245V99.4615ZM12.17 101.221L4.33003 36.4213L0.358989 36.9018L8.19899 101.702L12.17 101.221ZM60.7658 36.6615V34.6615H58.7658V36.6615H60.7658ZM89.8858 36.6615H91.8858V34.6615H89.8858V36.6615ZM89.8858 46.4215V48.4215H91.8858V46.4215H89.8858ZM75.0858 46.4215V44.4215H73.0858V46.4215H75.0858ZM75.0858 62.5015H73.0858V64.5015H75.0858V62.5015ZM86.3658 62.5015H88.3658V60.5015H86.3658V62.5015ZM86.3658 72.4215V74.4215H88.3658V72.4215H86.3658ZM75.0858 72.4215V70.4215H73.0858V72.4215H75.0858ZM75.0858 91.7815H73.0858V93.7815H75.0858V91.7815ZM90.0458 91.7815H92.0458V89.7815H90.0458V91.7815ZM90.0458 101.462V103.462H92.0458V101.462H90.0458ZM60.7658 101.462H58.7658V103.462H60.7658V101.462ZM60.7658 38.6615H89.8858V34.6615H60.7658V38.6615ZM87.8858 36.6615V46.4215H91.8858V36.6615H87.8858ZM89.8858 44.4215H75.0858V48.4215H89.8858V44.4215ZM73.0858 46.4215V62.5015H77.0858V46.4215H73.0858ZM75.0858 64.5015H86.3658V60.5015H75.0858V64.5015ZM84.3658 62.5015V72.4215H88.3658V62.5015H84.3658ZM86.3658 70.4215H75.0858V74.4215H86.3658V70.4215ZM73.0858 72.4215V91.7815H77.0858V72.4215H73.0858ZM75.0858 93.7815H90.0458V89.7815H75.0858V93.7815ZM88.0458 91.7815V101.462H92.0458V91.7815H88.0458ZM90.0458 99.4615H60.7658V103.462H90.0458V99.4615ZM62.7658 101.462V36.6615H58.7658V101.462H62.7658ZM96.547 36.6615V34.6615H94.547V36.6615H96.547ZM110.867 36.6615H112.867V34.6615H110.867V36.6615ZM110.867 91.7815H108.867V93.7815H110.867V91.7815ZM125.747 91.7815H127.747V89.7815H125.747V91.7815ZM125.747 101.462V103.462H127.747V101.462H125.747ZM96.547 101.462H94.547V103.462H96.547V101.462ZM96.547 38.6615H110.867V34.6615H96.547V38.6615ZM108.867 36.6615V91.7815H112.867V36.6615H108.867ZM110.867 93.7815H125.747V89.7815H110.867V93.7815ZM123.747 91.7815V101.462H127.747V91.7815H123.747ZM125.747 99.4615H96.547V103.462H125.747V99.4615ZM98.547 101.462V36.6615H94.547V101.462H98.547ZM134.52 96.9015L132.947 98.1372L132.957 98.1496L132.967 98.1619L134.52 96.9015ZM134.52 41.3015L136.075 42.5593L136.08 42.5537L136.084 42.5482L134.52 41.3015ZM168.2 60.1015V62.1015H170.2V60.1015H168.2ZM154.2 60.1015H152.2V62.1015H154.2V60.1015ZM153.4 47.8615L151.543 48.6043L151.543 48.6043L153.4 47.8615ZM145.56 48.0215L147.376 48.8596L147.382 48.8468L147.388 48.8338L145.56 48.0215ZM145.56 90.2615L143.744 91.0996L143.764 91.1424L143.786 91.1842L145.56 90.2615ZM153.32 90.2615L151.478 89.4823L151.471 89.5004L151.463 89.5188L153.32 90.2615ZM154.2 77.5415V75.5415H152.2V77.5415H154.2ZM168.2 77.5415H170.2V75.5415H168.2V77.5415ZM163.96 97.3815L165.491 98.6691L165.496 98.6631L165.501 98.6572L163.96 97.3815ZM149.56 100.422C142.823 100.422 138.524 98.6615 136.073 95.6412L132.967 98.1619C136.489 102.502 142.218 104.422 149.56 104.422V100.422ZM136.093 95.6659C133.54 92.4171 132.12 87.5636 132.12 80.8215H128.12C128.12 88.0528 129.633 93.9193 132.947 98.1372L136.093 95.6659ZM132.12 80.8215V57.4615H128.12V80.8215H132.12ZM132.12 57.4615C132.12 50.5409 133.548 45.684 136.075 42.5593L132.965 40.0438C129.626 44.1724 128.12 50.0888 128.12 57.4615H132.12ZM136.084 42.5482C138.477 39.5461 142.76 37.7815 149.56 37.7815V33.7815C142.174 33.7815 136.43 35.697 132.956 40.0549L136.084 42.5482ZM149.56 37.7815C156.083 37.7815 160.176 39.3554 162.45 41.9733L165.47 39.3498C162.091 35.4609 156.584 33.7815 149.56 33.7815V37.7815ZM162.45 41.9733C164.857 44.7435 166.2 48.8245 166.2 54.5015H170.2C170.2 48.2319 168.716 43.0862 165.47 39.3498L162.45 41.9733ZM166.2 54.5015V60.1015H170.2V54.5015H166.2ZM168.2 58.1015H154.2V62.1015H168.2V58.1015ZM156.2 60.1015V53.6215H152.2V60.1015H156.2ZM156.2 53.6215C156.2 51.0215 155.93 48.8021 155.257 47.1187L151.543 48.6043C151.936 49.5876 152.2 51.2082 152.2 53.6215H156.2ZM155.257 47.1188C154.294 44.7122 152.004 43.8615 149.56 43.8615V47.8615C151.17 47.8615 151.439 48.3441 151.543 48.6043L155.257 47.1188ZM149.56 43.8615C148.323 43.8615 147.13 44.0799 146.09 44.6417C145.018 45.2207 144.224 46.1024 143.733 47.2093L147.388 48.8338C147.536 48.5006 147.729 48.3023 147.99 48.1613C148.283 48.0032 148.771 47.8615 149.56 47.8615V43.8615ZM143.744 47.1834C142.929 48.9488 142.6 51.2285 142.6 53.8615H146.6C146.6 51.4812 146.911 49.8676 147.376 48.8596L143.744 47.1834ZM142.6 53.8615V84.3415H146.6V53.8615H142.6ZM142.6 84.3415C142.6 87.0205 142.928 89.3302 143.744 91.0996L147.376 89.4234C146.913 88.4195 146.6 86.7825 146.6 84.3415H142.6ZM143.786 91.1842C144.933 93.3909 147.113 94.2615 149.56 94.2615V90.2615C148.06 90.2615 147.574 89.7988 147.335 89.3388L143.786 91.1842ZM149.56 94.2615C150.753 94.2615 151.913 94.0626 152.919 93.5273C153.968 92.9693 154.737 92.1041 155.177 91.0043L151.463 89.5188C151.37 89.7523 151.245 89.8871 151.041 89.9958C150.794 90.1271 150.34 90.2615 149.56 90.2615V94.2615ZM155.162 91.0408C155.902 89.293 156.2 87.0078 156.2 84.3415H152.2C152.2 86.7953 151.912 88.4567 151.478 89.4823L155.162 91.0408ZM156.2 84.3415V77.5415H152.2V84.3415H156.2ZM154.2 79.5415H168.2V75.5415H154.2V79.5415ZM166.2 77.5415V83.1415H170.2V77.5415H166.2ZM166.2 83.1415C166.2 88.9282 164.855 93.1648 162.42 96.1059L165.501 98.6572C168.718 94.7716 170.2 89.5149 170.2 83.1415H166.2ZM162.43 96.094C160.15 98.8035 156.065 100.422 149.56 100.422V104.422C156.602 104.422 162.117 102.68 165.491 98.6691L162.43 96.094ZM179.678 97.0615L178.134 98.3329L178.139 98.3386L178.144 98.3442L179.678 97.0615ZM179.678 41.1415L181.203 42.4355L181.208 42.4298L181.213 42.4242L179.678 41.1415ZM209.678 41.1415L208.144 42.4242L208.149 42.4308L208.155 42.4375L209.678 41.1415ZM209.678 97.0615L208.146 95.7767L208.144 95.7789L209.678 97.0615ZM198.638 90.2615L200.441 91.127L200.448 91.1134L200.454 91.0996L198.638 90.2615ZM198.638 47.8615L196.835 48.727L196.835 48.727L198.638 47.8615ZM190.798 47.9415L192.601 48.807L192.608 48.7934L192.614 48.7796L190.798 47.9415ZM190.718 90.2615L188.876 91.0408L188.882 91.054L188.888 91.067L190.718 90.2615ZM194.638 100.422C187.943 100.422 183.661 98.7083 181.213 95.7789L178.144 98.3442C181.669 102.561 187.361 104.422 194.638 104.422V100.422ZM181.222 95.7901C178.646 92.6621 177.198 87.8601 177.198 81.0615H173.198C173.198 88.343 174.737 94.2076 178.134 98.3329L181.222 95.7901ZM177.198 81.0615V56.9815H173.198V81.0615H177.198ZM177.198 56.9815C177.198 50.1769 178.649 45.4463 181.203 42.4355L178.153 39.8476C174.735 43.8767 173.198 49.7062 173.198 56.9815H177.198ZM181.213 42.4242C183.661 39.4948 187.943 37.7815 194.638 37.7815V33.7815C187.361 33.7815 181.669 35.6416 178.144 39.8589L181.213 42.4242ZM194.638 37.7815C201.393 37.7815 205.698 39.4978 208.144 42.4242L211.213 39.8589C207.685 35.6386 201.963 33.7815 194.638 33.7815V37.7815ZM208.155 42.4375C210.768 45.5084 212.238 50.2448 212.238 56.9815H216.238C216.238 49.745 214.669 43.9213 211.202 39.8456L208.155 42.4375ZM212.238 56.9815V81.0615H216.238V56.9815H212.238ZM212.238 81.0615C212.238 87.8532 210.767 92.6497 208.146 95.7767L211.211 98.3463C214.67 94.2201 216.238 88.3498 216.238 81.0615H212.238ZM208.144 95.7789C205.698 98.7052 201.393 100.422 194.638 100.422V104.422C201.963 104.422 207.685 102.564 211.213 98.3442L208.144 95.7789ZM194.638 94.2615C197.102 94.2615 199.345 93.41 200.441 91.127L196.835 89.3961C196.651 89.7797 196.228 90.2615 194.638 90.2615V94.2615ZM200.454 91.0996C201.263 89.3473 201.598 87.1575 201.598 84.6615H197.598C197.598 86.8589 197.294 88.4024 196.822 89.4234L200.454 91.0996ZM201.598 84.6615V53.4615H197.598V84.6615H201.598ZM201.598 53.4615C201.598 50.927 201.267 48.7167 200.441 46.9961L196.835 48.727C197.289 49.673 197.598 51.1961 197.598 53.4615H201.598ZM200.441 46.9961C199.345 44.7131 197.102 43.8615 194.638 43.8615V47.8615C196.228 47.8615 196.651 48.3433 196.835 48.727L200.441 46.9961ZM194.638 43.8615C193.448 43.8615 192.297 44.0753 191.286 44.6229C190.247 45.1858 189.474 46.0387 188.982 47.1034L192.614 48.7796C192.763 48.4577 192.95 48.2706 193.191 48.1401C193.46 47.9944 193.908 47.8615 194.638 47.8615V43.8615ZM188.995 47.0761C188.171 48.7922 187.838 50.9722 187.838 53.4615H191.838C191.838 51.2575 192.145 49.7575 192.601 48.807L188.995 47.0761ZM187.838 53.4615V84.6615H191.838V53.4615H187.838ZM187.838 84.6615C187.838 87.1424 188.144 89.3088 188.876 91.0408L192.56 89.4823C192.12 88.4409 191.838 86.874 191.838 84.6615H187.838ZM188.888 91.067C189.919 93.4104 192.184 94.2615 194.638 94.2615V90.2615C193.039 90.2615 192.691 89.7793 192.549 89.4561L188.888 91.067ZM223.833 36.6615V34.6615H221.868L221.834 36.627L223.833 36.6615ZM239.193 36.6615L241.158 36.2902L240.851 34.6615H239.193V36.6615ZM246.313 74.3415L244.348 74.7129L248.273 74.741L246.313 74.3415ZM253.993 36.6615V34.6615H252.36L252.034 36.2621L253.993 36.6615ZM268.793 36.6615L270.793 36.627L270.759 34.6615H268.793V36.6615ZM269.913 101.462V103.462H271.948L271.913 101.427L269.913 101.462ZM259.753 101.462L257.754 101.517L257.808 103.462H259.753V101.462ZM258.553 58.3415L260.552 58.2859L256.583 57.9979L258.553 58.3415ZM251.033 101.462V103.462H252.715L253.004 101.805L251.033 101.462ZM241.993 101.462L240.026 101.824L240.328 103.462H241.993V101.462ZM233.993 58.0215L235.96 57.6593L231.994 57.9773L233.993 58.0215ZM233.033 101.462V103.462H234.99L235.033 101.506L233.033 101.462ZM222.713 101.462L220.714 101.427L220.678 103.462H222.713V101.462ZM223.833 38.6615H239.193V34.6615H223.833V38.6615ZM237.228 37.0329L244.348 74.7129L248.278 73.9702L241.158 36.2902L237.228 37.0329ZM248.273 74.741L255.953 37.061L252.034 36.2621L244.354 73.9421L248.273 74.741ZM253.993 38.6615H268.793V34.6615H253.993V38.6615ZM266.794 36.6961L267.914 101.496L271.913 101.427L270.793 36.627L266.794 36.6961ZM269.913 99.4615H259.753V103.462H269.913V99.4615ZM261.752 101.406L260.552 58.2859L256.554 58.3972L257.754 101.517L261.752 101.406ZM256.583 57.9979L249.063 101.118L253.004 101.805L260.524 58.6851L256.583 57.9979ZM251.033 99.4615H241.993V103.462H251.033V99.4615ZM243.96 101.099L235.96 57.6593L232.026 58.3838L240.026 101.824L243.96 101.099ZM231.994 57.9773L231.034 101.417L235.033 101.506L235.993 58.0657L231.994 57.9773ZM233.033 99.4615H222.713V103.462H233.033V99.4615ZM224.713 101.496L225.833 36.6961L221.834 36.627L220.714 101.427L224.713 101.496ZM279.281 36.6615V34.6615H277.281V36.6615H279.281ZM308.401 36.6615H310.401V34.6615H308.401V36.6615ZM308.401 46.4215V48.4215H310.401V46.4215H308.401ZM293.601 46.4215V44.4215H291.601V46.4215H293.601ZM293.601 62.5015H291.601V64.5015H293.601V62.5015ZM304.881 62.5015H306.881V60.5015H304.881V62.5015ZM304.881 72.4215V74.4215H306.881V72.4215H304.881ZM293.601 72.4215V70.4215H291.601V72.4215H293.601ZM293.601 91.7815H291.601V93.7815H293.601V91.7815ZM308.561 91.7815H310.561V89.7815H308.561V91.7815ZM308.561 101.462V103.462H310.561V101.462H308.561ZM279.281 101.462H277.281V103.462H279.281V101.462ZM279.281 38.6615H308.401V34.6615H279.281V38.6615ZM306.401 36.6615V46.4215H310.401V36.6615H306.401ZM308.401 44.4215H293.601V48.4215H308.401V44.4215ZM291.601 46.4215V62.5015H295.601V46.4215H291.601ZM293.601 64.5015H304.881V60.5015H293.601V64.5015ZM302.881 62.5015V72.4215H306.881V62.5015H302.881ZM304.881 70.4215H293.601V74.4215H304.881V70.4215ZM291.601 72.4215V91.7815H295.601V72.4215H291.601ZM293.601 93.7815H308.561V89.7815H293.601V93.7815ZM306.561 91.7815V101.462H310.561V91.7815H306.561ZM308.561 99.4615H279.281V103.462H308.561V99.4615ZM281.281 101.462V36.6615H277.281V101.462H281.281ZM341.371 47.3015H343.371V45.3015H341.371V47.3015ZM331.611 47.3015H329.611V49.3015H331.611V47.3015ZM331.611 36.6615V34.6615H329.611V36.6615H331.611ZM365.451 36.6615H367.451V34.6615H365.451V36.6615ZM365.451 47.3015V49.3015H367.451V47.3015H365.451ZM355.771 47.3015V45.3015H353.771V47.3015H355.771ZM355.771 101.462V103.462H357.771V101.462H355.771ZM341.371 101.462H339.371V103.462H341.371V101.462ZM341.371 45.3015H331.611V49.3015H341.371V45.3015ZM333.611 47.3015V36.6615H329.611V47.3015H333.611ZM331.611 38.6615H365.451V34.6615H331.611V38.6615ZM363.451 36.6615V47.3015H367.451V36.6615H363.451ZM365.451 45.3015H355.771V49.3015H365.451V45.3015ZM353.771 47.3015V101.462H357.771V47.3015H353.771ZM355.771 99.4615H341.371V103.462H355.771V99.4615ZM343.371 101.462V47.3015H339.371V101.462H343.371ZM374.131 97.0615L372.588 98.3329L372.592 98.3386L372.597 98.3442L374.131 97.0615ZM374.131 41.1415L375.656 42.4355L375.661 42.4298L375.666 42.4242L374.131 41.1415ZM404.131 41.1415L402.597 42.4242L402.602 42.4308L402.608 42.4375L404.131 41.1415ZM404.131 97.0615L402.599 95.7767L402.597 95.7789L404.131 97.0615ZM393.091 90.2615L394.894 91.127L394.901 91.1134L394.907 91.0996L393.091 90.2615ZM393.091 47.8615L391.288 48.727L391.288 48.727L393.091 47.8615ZM385.251 47.9415L387.054 48.807L387.061 48.7934L387.067 48.7796L385.251 47.9415ZM385.171 90.2615L383.329 91.0408L383.335 91.054L383.341 91.067L385.171 90.2615ZM389.091 100.422C382.396 100.422 378.114 98.7083 375.666 95.7789L372.597 98.3442C376.122 102.561 381.814 104.422 389.091 104.422V100.422ZM375.675 95.7901C373.099 92.6621 371.651 87.8601 371.651 81.0615H367.651C367.651 88.343 369.19 94.2076 372.588 98.3329L375.675 95.7901ZM371.651 81.0615V56.9815H367.651V81.0615H371.651ZM371.651 56.9815C371.651 50.1769 373.102 45.4463 375.656 42.4355L372.606 39.8476C369.188 43.8767 367.651 49.7062 367.651 56.9815H371.651ZM375.666 42.4242C378.114 39.4948 382.396 37.7815 389.091 37.7815V33.7815C381.814 33.7815 376.122 35.6416 372.597 39.8589L375.666 42.4242ZM389.091 37.7815C395.846 37.7815 400.151 39.4978 402.597 42.4242L405.666 39.8589C402.139 35.6386 396.416 33.7815 389.091 33.7815V37.7815ZM402.608 42.4375C405.221 45.5084 406.691 50.2448 406.691 56.9815H410.691C410.691 49.745 409.122 43.9213 405.655 39.8456L402.608 42.4375ZM406.691 56.9815V81.0615H410.691V56.9815H406.691ZM406.691 81.0615C406.691 87.8532 405.22 92.6497 402.599 95.7767L405.664 98.3463C409.123 94.2201 410.691 88.3498 410.691 81.0615H406.691ZM402.597 95.7789C400.151 98.7052 395.846 100.422 389.091 100.422V104.422C396.416 104.422 402.139 102.564 405.666 98.3442L402.597 95.7789ZM389.091 94.2615C391.555 94.2615 393.799 93.41 394.894 91.127L391.288 89.3961C391.104 89.7797 390.681 90.2615 389.091 90.2615V94.2615ZM394.907 91.0996C395.716 89.3473 396.051 87.1575 396.051 84.6615H392.051C392.051 86.8589 391.747 88.4024 391.275 89.4234L394.907 91.0996ZM396.051 84.6615V53.4615H392.051V84.6615H396.051ZM396.051 53.4615C396.051 50.927 395.72 48.7167 394.894 46.9961L391.288 48.727C391.742 49.673 392.051 51.1961 392.051 53.4615H396.051ZM394.894 46.9961C393.799 44.7131 391.555 43.8615 389.091 43.8615V47.8615C390.681 47.8615 391.104 48.3433 391.288 48.727L394.894 46.9961ZM389.091 43.8615C387.901 43.8615 386.75 44.0753 385.739 44.6229C384.7 45.1858 383.927 46.0387 383.435 47.1034L387.067 48.7796C387.216 48.4577 387.403 48.2706 387.644 48.1401C387.913 47.9944 388.362 47.8615 389.091 47.8615V43.8615ZM383.448 47.0761C382.625 48.7922 382.291 50.9722 382.291 53.4615H386.291C386.291 51.2575 386.598 49.7575 387.054 48.807L383.448 47.0761ZM382.291 53.4615V84.6615H386.291V53.4615H382.291ZM382.291 84.6615C382.291 87.1424 382.597 89.3088 383.329 91.0408L387.013 89.4823C386.573 88.4409 386.291 86.874 386.291 84.6615H382.291ZM383.341 91.067C384.372 93.4104 386.637 94.2615 389.091 94.2615V90.2615C387.492 90.2615 387.144 89.7793 387.002 89.4561L383.341 91.067ZM438.755 36.6615V34.6615H436.789L436.755 36.627L438.755 36.6615ZM454.115 36.6615L456.08 36.2902L455.773 34.6615H454.115V36.6615ZM461.235 74.3415L459.27 74.7129L463.195 74.741L461.235 74.3415ZM468.915 36.6615V34.6615H467.282L466.955 36.2621L468.915 36.6615ZM483.715 36.6615L485.715 36.627L485.681 34.6615H483.715V36.6615ZM484.835 101.462V103.462H486.87L486.835 101.427L484.835 101.462ZM474.675 101.462L472.676 101.517L472.73 103.462H474.675V101.462ZM473.475 58.3415L475.474 58.2859L471.505 57.9979L473.475 58.3415ZM465.955 101.462V103.462H467.637L467.925 101.805L465.955 101.462ZM456.915 101.462L454.948 101.824L455.25 103.462H456.915V101.462ZM448.915 58.0215L450.882 57.6593L446.916 57.9773L448.915 58.0215ZM447.955 101.462V103.462H449.911L449.955 101.506L447.955 101.462ZM437.635 101.462L435.635 101.427L435.6 103.462H437.635V101.462ZM438.755 38.6615H454.115V34.6615H438.755V38.6615ZM452.15 37.0329L459.27 74.7129L463.2 73.9702L456.08 36.2902L452.15 37.0329ZM463.195 74.741L470.875 37.061L466.955 36.2621L459.275 73.9421L463.195 74.741ZM468.915 38.6615H483.715V34.6615H468.915V38.6615ZM481.715 36.6961L482.835 101.496L486.835 101.427L485.715 36.627L481.715 36.6961ZM484.835 99.4615H474.675V103.462H484.835V99.4615ZM476.674 101.406L475.474 58.2859L471.476 58.3972L472.676 101.517L476.674 101.406ZM471.505 57.9979L463.985 101.118L467.925 101.805L475.445 58.6851L471.505 57.9979ZM465.955 99.4615H456.915V103.462H465.955V99.4615ZM458.882 101.099L450.882 57.6593L446.948 58.3838L454.948 101.824L458.882 101.099ZM446.916 57.9773L445.956 101.417L449.955 101.506L450.915 58.0657L446.916 57.9773ZM447.955 99.4615H437.635V103.462H447.955V99.4615ZM439.635 101.496L440.755 36.6961L436.755 36.627L435.635 101.427L439.635 101.496ZM501.738 74.9815H503.738V74.6679L503.642 74.3694L501.738 74.9815ZM489.418 36.6615V34.6615H486.674L487.514 37.2737L489.418 36.6615ZM502.938 36.6615L504.853 36.0855L504.425 34.6615H502.938V36.6615ZM509.098 57.1415L507.183 57.7176L509.204 64.4356L511.029 57.662L509.098 57.1415ZM514.618 36.6615V34.6615H513.086L512.687 36.141L514.618 36.6615ZM527.578 36.6615L529.486 37.2628L530.306 34.6615H527.578V36.6615ZM515.498 74.9815L513.591 74.3802L513.498 74.6738V74.9815H515.498ZM515.498 101.462V103.462H517.498V101.462H515.498ZM501.738 101.462H499.738V103.462H501.738V101.462ZM503.642 74.3694L491.322 36.0494L487.514 37.2737L499.834 75.5937L503.642 74.3694ZM489.418 38.6615H502.938V34.6615H489.418V38.6615ZM501.023 37.2376L507.183 57.7176L511.014 56.5655L504.853 36.0855L501.023 37.2376ZM511.029 57.662L516.549 37.182L512.687 36.141L507.167 56.621L511.029 57.662ZM514.618 38.6615H527.578V34.6615H514.618V38.6615ZM525.671 36.0602L513.591 74.3802L517.406 75.5828L529.486 37.2628L525.671 36.0602ZM513.498 74.9815V101.462H517.498V74.9815H513.498ZM515.498 99.4615H501.738V103.462H515.498V99.4615ZM503.738 101.462V74.9815H499.738V101.462H503.738ZM556.86 97.5415L555.376 98.8821L555.387 98.8947L555.399 98.907L556.86 97.5415ZM552.06 81.8615L551.763 79.8838L550.008 80.1475L550.061 81.9212L552.06 81.8615ZM564.3 80.0215L566.3 79.9956L566.27 77.7029L564.003 78.0438L564.3 80.0215ZM565.74 88.9015L563.951 89.796L563.967 89.8279L563.984 89.8592L565.74 88.9015ZM571.82 80.3415L570.119 81.3925L570.13 81.4104L570.141 81.428L571.82 80.3415ZM566.46 74.5015L565.146 76.0094L565.156 76.0183L565.167 76.027L566.46 74.5015ZM560.86 69.6215L562.174 68.1137L562.163 68.1042L562.152 68.0948L560.86 69.6215ZM554.38 62.1815L552.635 63.1587L552.647 63.1796L552.659 63.2002L554.38 62.1815ZM556.94 40.1815L555.601 38.6962L555.595 38.7017L555.589 38.7072L556.94 40.1815ZM582.78 41.1415L581.074 42.1855L581.08 42.1947L581.086 42.2038L582.78 41.1415ZM586.38 54.1815L586.625 56.1665L588.436 55.943L588.379 54.1191L586.38 54.1815ZM574.06 55.7015L572.061 55.765L572.131 57.9547L574.305 57.6865L574.06 55.7015ZM573.1 48.5015L571.196 49.1135L571.209 49.1552L571.225 49.1962L573.1 48.5015ZM566.94 47.8615L565.263 46.7716L565.256 46.7825L565.249 46.7935L566.94 47.8615ZM567.42 56.8215L565.738 57.903L565.751 57.924L565.765 57.9445L567.42 56.8215ZM572.22 61.9415L573.542 60.4405L573.54 60.4387L572.22 61.9415ZM577.58 66.6615L576.258 68.1625L576.272 68.1741L576.285 68.1854L577.58 66.6615ZM585.02 75.3015L586.751 74.2995L586.751 74.2995L585.02 75.3015ZM585.5 94.4215L583.766 93.4253L583.759 93.4374L585.5 94.4215ZM579.58 100.262L578.6 98.5184L578.6 98.5184L579.58 100.262ZM570.7 100.422C564.845 100.422 560.855 98.8869 558.321 96.176L555.399 98.907C558.946 102.703 564.181 104.422 570.7 104.422V100.422ZM558.344 96.201C555.819 93.4052 554.266 88.7435 554.059 81.8019L550.061 81.9212C550.28 89.2729 551.928 95.0646 555.376 98.8821L558.344 96.201ZM552.357 83.8393L564.597 81.9993L564.003 78.0438L551.763 79.8838L552.357 83.8393ZM562.3 80.0475C562.354 84.208 562.831 87.5553 563.951 89.796L567.529 88.0071C566.836 86.6211 566.353 84.0483 566.3 79.9956L562.3 80.0475ZM563.984 89.8592C564.596 90.9804 565.409 91.9231 566.463 92.5793C567.524 93.2401 568.72 93.5415 569.98 93.5415V89.5415C569.374 89.5415 568.929 89.403 568.577 89.1837C568.218 88.9599 567.844 88.5827 567.496 87.9438L563.984 89.8592ZM569.98 93.5415C571.656 93.5415 573.21 92.9642 574.27 91.5744C575.252 90.287 575.58 88.5925 575.58 86.8215H571.58C571.58 88.1972 571.308 88.8627 571.09 89.1486C570.95 89.3322 570.705 89.5415 569.98 89.5415V93.5415ZM575.58 86.8215C575.58 83.9926 574.914 81.4414 573.499 79.255L570.141 81.428C571.073 82.8684 571.58 84.6371 571.58 86.8215H575.58ZM573.522 79.2905C572.25 77.2323 570.294 75.13 567.754 72.976L565.167 76.027C567.533 78.0331 569.15 79.8241 570.119 81.3925L573.522 79.2905ZM567.774 72.9937L562.174 68.1137L559.546 71.1293L565.146 76.0094L567.774 72.9937ZM562.152 68.0948C559.517 65.8648 557.514 63.5506 556.101 61.1629L552.659 63.2002C554.339 66.0392 556.657 68.6849 559.568 71.1483L562.152 68.0948ZM556.125 61.2043C554.828 58.8875 554.14 56.09 554.14 52.7415H550.14C550.14 56.6464 550.946 60.1423 552.635 63.1587L556.125 61.2043ZM554.14 52.7415C554.14 47.7103 555.605 44.1186 558.292 41.6558L555.589 38.7072C551.875 42.1111 550.14 46.8928 550.14 52.7415H554.14ZM558.279 41.6669C561.069 39.1521 564.994 37.7815 570.3 37.7815V33.7815C564.3 33.7815 559.318 35.3443 555.601 38.6962L558.279 41.6669ZM570.3 37.7815C576.088 37.7815 579.403 39.454 581.074 42.1855L584.486 40.0976C581.784 35.6824 576.779 33.7815 570.3 33.7815V37.7815ZM581.086 42.2038C583.101 45.4183 584.23 49.4024 584.381 54.244L588.379 54.1191C588.21 48.7206 586.94 44.0114 584.475 40.0793L581.086 42.2038ZM586.135 52.1966L573.815 53.7166L574.305 57.6865L586.625 56.1665L586.135 52.1966ZM576.059 55.6381C575.952 52.2566 575.63 49.5743 574.976 47.8069L571.225 49.1962C571.637 50.3088 571.955 52.4264 572.061 55.765L576.059 55.6381ZM575.004 47.8895C574.654 46.8008 574.026 45.8381 573.048 45.1699C572.085 44.5121 570.96 44.2615 569.82 44.2615V48.2615C570.387 48.2615 570.662 48.3842 570.792 48.4731C570.907 48.5517 571.066 48.7089 571.196 49.1135L575.004 47.8895ZM569.82 44.2615C567.887 44.2615 566.309 45.1627 565.263 46.7716L568.617 48.9515C568.958 48.427 569.3 48.2615 569.82 48.2615V44.2615ZM565.249 46.7935C564.393 48.1485 563.98 49.6703 563.98 51.3015H567.98C567.98 50.3727 568.207 49.6013 568.631 48.9295L565.249 46.7935ZM563.98 51.3015C563.98 53.7826 564.527 56.0196 565.738 57.903L569.102 55.74C568.393 54.6368 567.98 53.1938 567.98 51.3015H563.98ZM565.765 57.9445C566.914 59.637 568.654 61.4718 570.901 63.4444L573.54 60.4387C571.413 58.5712 569.953 56.9928 569.075 55.6985L565.765 57.9445ZM570.898 63.4425L576.258 68.1625L578.902 65.1605L573.542 60.4405L570.898 63.4425ZM576.285 68.1854C579.344 70.7857 581.664 73.4955 583.289 76.3036L586.751 74.2995C584.857 71.0276 582.216 67.9773 578.875 65.1377L576.285 68.1854ZM583.289 76.3036C584.843 78.9872 585.66 82.2282 585.66 86.1015H589.66C589.66 81.6548 588.717 77.6958 586.751 74.2995L583.289 76.3036ZM585.66 86.1015C585.66 88.8107 585.023 91.2376 583.766 93.4253L587.234 95.4178C588.858 92.5921 589.66 89.4724 589.66 86.1015H585.66ZM583.759 93.4374C582.56 95.5593 580.856 97.2494 578.6 98.5184L580.561 102.005C583.425 100.394 585.667 98.1904 587.241 95.4056L583.759 93.4374ZM578.6 98.5184C576.38 99.767 573.767 100.422 570.7 100.422V104.422C574.354 104.422 577.66 103.636 580.561 102.005L578.6 98.5184ZM594.674 36.6615V34.6615H592.674V36.6615H594.674ZM608.994 36.6615H610.994V34.6615H608.994V36.6615ZM608.994 101.462V103.462H610.994V101.462H608.994ZM594.674 101.462H592.674V103.462H594.674V101.462ZM594.674 38.6615H608.994V34.6615H594.674V38.6615ZM606.994 36.6615V101.462H610.994V36.6615H606.994ZM608.994 99.4615H594.674V103.462H608.994V99.4615ZM596.674 101.462V36.6615H592.674V101.462H596.674ZM624.496 47.3015H626.496V45.3015H624.496V47.3015ZM614.736 47.3015H612.736V49.3015H614.736V47.3015ZM614.736 36.6615V34.6615H612.736V36.6615H614.736ZM648.576 36.6615H650.576V34.6615H648.576V36.6615ZM648.576 47.3015V49.3015H650.576V47.3015H648.576ZM638.896 47.3015V45.3015H636.896V47.3015H638.896ZM638.896 101.462V103.462H640.896V101.462H638.896ZM624.496 101.462H622.496V103.462H624.496V101.462ZM624.496 45.3015H614.736V49.3015H624.496V45.3015ZM616.736 47.3015V36.6615H612.736V47.3015H616.736ZM614.736 38.6615H648.576V34.6615H614.736V38.6615ZM646.576 36.6615V47.3015H650.576V36.6615H646.576ZM648.576 45.3015H638.896V49.3015H648.576V45.3015ZM636.896 47.3015V101.462H640.896V47.3015H636.896ZM638.896 99.4615H624.496V103.462H638.896V99.4615ZM626.496 101.462V47.3015H622.496V101.462H626.496ZM654.281 36.6615V34.6615H652.281V36.6615H654.281ZM683.401 36.6615H685.401V34.6615H683.401V36.6615ZM683.401 46.4215V48.4215H685.401V46.4215H683.401ZM668.601 46.4215V44.4215H666.601V46.4215H668.601ZM668.601 62.5015H666.601V64.5015H668.601V62.5015ZM679.881 62.5015H681.881V60.5015H679.881V62.5015ZM679.881 72.4215V74.4215H681.881V72.4215H679.881ZM668.601 72.4215V70.4215H666.601V72.4215H668.601ZM668.601 91.7815H666.601V93.7815H668.601V91.7815ZM683.561 91.7815H685.561V89.7815H683.561V91.7815ZM683.561 101.462V103.462H685.561V101.462H683.561ZM654.281 101.462H652.281V103.462H654.281V101.462ZM654.281 38.6615H683.401V34.6615H654.281V38.6615ZM681.401 36.6615V46.4215H685.401V36.6615H681.401ZM683.401 44.4215H668.601V48.4215H683.401V44.4215ZM666.601 46.4215V62.5015H670.601V46.4215H666.601ZM668.601 64.5015H679.881V60.5015H668.601V64.5015ZM677.881 62.5015V72.4215H681.881V62.5015H677.881ZM679.881 70.4215H668.601V74.4215H679.881V70.4215ZM666.601 72.4215V91.7815H670.601V72.4215H666.601ZM668.601 93.7815H683.561V89.7815H668.601V93.7815ZM681.561 91.7815V101.462H685.561V91.7815H681.561ZM683.561 99.4615H654.281V103.462H683.561V99.4615ZM656.281 101.462V36.6615H652.281V101.462H656.281Z" fill="white"/>
</svg>
